EESchema Schematic File Version 4
EELAYER 30 0
EELAYER END
$Descr A4 11693 8268
encoding utf-8
Sheet 1 1
Title "quite simple continuity tester"
Date "2021-10-09"
Rev "0.0.0"
Comp "/!\\ minimum security schema even low with risks /!\\"
Comment1 "cheap components"
Comment2 "License : permissive"
Comment3 "See LICENSE file of project for more details"
Comment4 ""
$EndDescr
$Comp
L Device:Battery BT1
U 1 1 6161D42D
P 2500 6200
F 0 "BT1" H 2608 6246 50  0000 L CNN
F 1 "9v Battery" H 2608 6155 50  0000 L CNN
F 2 "Connector_BarrelJack:BarrelJack_CUI_PJ-063AH_Horizontal" V 2500 6260 50  0001 C CNN
F 3 "~" V 2500 6260 50  0001 C CNN
	1    2500 6200
	1    0    0    -1  
$EndComp
$Comp
L power:GND #PWR02
U 1 1 6161E5EE
P 2500 6800
F 0 "#PWR02" H 2500 6550 50  0001 C CNN
F 1 "GND" H 2505 6627 50  0000 C CNN
F 2 "" H 2500 6800 50  0001 C CNN
F 3 "" H 2500 6800 50  0001 C CNN
	1    2500 6800
	1    0    0    -1  
$EndComp
Wire Wire Line
	2500 6400 2500 6600
$Comp
L power:PWR_FLAG #FLG02
U 1 1 6161FDE3
P 2500 6600
F 0 "#FLG02" H 2500 6675 50  0001 C CNN
F 1 "PWR_FLAG" V 2500 6727 50  0000 L CNN
F 2 "" H 2500 6600 50  0001 C CNN
F 3 "~" H 2500 6600 50  0001 C CNN
	1    2500 6600
	0    -1   -1   0   
$EndComp
Connection ~ 2500 6600
Wire Wire Line
	2500 6600 2500 6800
$Comp
L Diode:1N4001 D1
U 1 1 61620833
P 3300 6400
F 0 "D1" V 3254 6480 50  0000 L CNN
F 1 "1N4001" V 3345 6480 50  0000 L CNN
F 2 "Resistor_THT:R_Axial_DIN0204_L3.6mm_D1.6mm_P7.62mm_Horizontal" H 3300 6225 50  0001 C CNN
F 3 "http://www.vishay.com/docs/88503/1n4001.pdf" H 3300 6400 50  0001 C CNN
	1    3300 6400
	0    1    1    0   
$EndComp
$Comp
L Device:R_US R1
U 1 1 616213A6
P 4000 6000
F 0 "R1" H 4068 6046 50  0000 L CNN
F 1 "220k" H 4068 5955 50  0000 L CNN
F 2 "Resistor_SMD:R_0805_2012Metric" V 4040 5990 50  0001 C CNN
F 3 "~" H 4000 6000 50  0001 C CNN
	1    4000 6000
	1    0    0    -1  
$EndComp
$Comp
L Device:C_Polarized_US C1
U 1 1 61622563
P 4000 6550
F 0 "C1" H 4115 6596 50  0000 L CNN
F 1 "220µ" H 4115 6505 50  0000 L CNN
F 2 "Capacitor_SMD:CP_Elec_5x5.9" H 4000 6550 50  0001 C CNN
F 3 "~" H 4000 6550 50  0001 C CNN
	1    4000 6550
	1    0    0    -1  
$EndComp
$Comp
L Device:R_US R2
U 1 1 61628805
P 6000 6000
F 0 "R2" H 6068 6046 50  0000 L CNN
F 1 "220k" H 6068 5955 50  0000 L CNN
F 2 "Resistor_SMD:R_0805_2012Metric" V 6040 5990 50  0001 C CNN
F 3 "~" H 6000 6000 50  0001 C CNN
	1    6000 6000
	1    0    0    -1  
$EndComp
$Comp
L Device:LED D2
U 1 1 61628E36
P 6000 6350
F 0 "D2" V 6039 6232 50  0000 R CNN
F 1 "LED" V 5948 6232 50  0000 R CNN
F 2 "Connector_PinHeader_2.54mm:PinHeader_1x02_P2.54mm_Horizontal" H 6000 6350 50  0001 C CNN
F 3 "~" H 6000 6350 50  0001 C CNN
	1    6000 6350
	0    -1   -1   0   
$EndComp
Wire Wire Line
	4550 5800 4000 5800
Wire Wire Line
	3300 6250 3300 5800
Connection ~ 3300 5800
Wire Wire Line
	3300 5800 2500 5800
Wire Wire Line
	4000 5850 4000 5800
Connection ~ 4000 5800
Wire Wire Line
	4000 5800 3300 5800
Wire Wire Line
	4950 5800 5450 5800
Wire Wire Line
	6000 5800 6000 5850
Wire Wire Line
	4000 6150 4000 6250
Wire Wire Line
	4000 6250 4750 6250
Wire Wire Line
	4750 6250 4750 6100
Connection ~ 4000 6250
Wire Wire Line
	4000 6250 4000 6400
Wire Wire Line
	6000 6150 6000 6200
$Comp
L power:GND #PWR03
U 1 1 6162AB5A
P 3300 6900
F 0 "#PWR03" H 3300 6650 50  0001 C CNN
F 1 "GND" H 3305 6727 50  0000 C CNN
F 2 "" H 3300 6900 50  0001 C CNN
F 3 "" H 3300 6900 50  0001 C CNN
	1    3300 6900
	1    0    0    -1  
$EndComp
$Comp
L power:GND #PWR04
U 1 1 6162ACB4
P 4000 6800
F 0 "#PWR04" H 4000 6550 50  0001 C CNN
F 1 "GND" H 4005 6627 50  0000 C CNN
F 2 "" H 4000 6800 50  0001 C CNN
F 3 "" H 4000 6800 50  0001 C CNN
	1    4000 6800
	1    0    0    -1  
$EndComp
$Comp
L power:GND #PWR06
U 1 1 6162ADCC
P 6000 6600
F 0 "#PWR06" H 6000 6350 50  0001 C CNN
F 1 "GND" H 6005 6427 50  0000 C CNN
F 2 "" H 6000 6600 50  0001 C CNN
F 3 "" H 6000 6600 50  0001 C CNN
	1    6000 6600
	1    0    0    -1  
$EndComp
Wire Wire Line
	3300 6550 3300 6900
Wire Wire Line
	4000 6700 4000 6800
Wire Wire Line
	6000 6600 6000 6500
$Comp
L Transistor_FET:BS170 Q2
U 1 1 6162D196
P 4800 7250
F 0 "Q2" H 5005 7296 50  0000 L CNN
F 1 "2SK2851?" H 5005 7205 50  0000 L CNN
F 2 "Package_TO_SOT_THT:TO-92_Inline_Horizontal1" H 5000 7175 50  0001 L CIN
F 3 "https://www.onsemi.com/pub/Collateral/BS170-D.PDF" H 4800 7250 50  0001 L CNN
	1    4800 7250
	1    0    0    -1  
$EndComp
Wire Wire Line
	4900 7050 4900 6750
Connection ~ 4750 6250
$Comp
L power:GND #PWR05
U 1 1 6162F0E5
P 4900 7550
F 0 "#PWR05" H 4900 7300 50  0001 C CNN
F 1 "GND" H 4905 7377 50  0000 C CNN
F 2 "" H 4900 7550 50  0001 C CNN
F 3 "" H 4900 7550 50  0001 C CNN
	1    4900 7550
	1    0    0    -1  
$EndComp
Wire Wire Line
	4900 7550 4900 7500
$Comp
L Switch:SW_Push SW1
U 1 1 616315F1
P 5450 7250
F 0 "SW1" V 5404 7398 50  0000 L CNN
F 1 "SW_Push" V 5495 7398 50  0000 L CNN
F 2 "Connector_PinSocket_2.54mm:PinSocket_1x02_P2.54mm_Horizontal" H 5450 7450 50  0001 C CNN
F 3 "~" H 5450 7450 50  0001 C CNN
	1    5450 7250
	0    1    1    0   
$EndComp
Wire Wire Line
	4750 6250 4900 6250
Wire Wire Line
	5450 7050 5450 6750
Wire Wire Line
	5450 6750 4900 6750
Connection ~ 4900 6750
Wire Wire Line
	4900 6750 4900 6250
Wire Wire Line
	5450 7450 5450 7500
Wire Wire Line
	5450 7500 4900 7500
Connection ~ 4900 7500
Wire Wire Line
	4900 7500 4900 7450
Text GLabel 4350 7250 0    50   Input ~ 0
back_inh
Wire Wire Line
	4600 7250 4350 7250
Text GLabel 6350 5800 2    50   Output ~ 0
globalvcc
Wire Wire Line
	6350 5800 6000 5800
Connection ~ 6000 5800
Text Notes 1650 7550 1    50   ~ 0
Q1/Q2 can be replaced with equivalents in to92.\nR1/C1 might be chosen for more or less "up" time.\nR2/D2 is optionnal & can be adapted to any color led.\nBattery can be 7.3v to 12v but a 9v might \nbe easier to carry & small enough for this.\n
Wire Notes Line
	7000 6000 7000 5250
$Comp
L Comparator:LM393 U11
U 1 1 6168510F
P 4300 4100
F 0 "U11" H 4300 3733 50  0000 C CNN
F 1 "LM393" H 4300 3824 50  0000 C CNN
F 2 "Package_SO:SOIC-8_3.9x4.9mm_P1.27mm" H 4300 4100 50  0001 C CNN
F 3 "http://www.ti.com/lit/ds/symlink/lm393.pdf" H 4300 4100 50  0001 C CNN
	1    4300 4100
	1    0    0    1   
$EndComp
$Comp
L Comparator:LM393 U11
U 2 1 61685470
P 4300 3100
F 0 "U11" H 4300 2733 50  0000 C CNN
F 1 "LM393" H 4300 2824 50  0000 C CNN
F 2 "Package_SO:SOIC-8_3.9x4.9mm_P1.27mm" H 4300 3100 50  0001 C CNN
F 3 "http://www.ti.com/lit/ds/symlink/lm393.pdf" H 4300 3100 50  0001 C CNN
	2    4300 3100
	1    0    0    1   
$EndComp
$Comp
L Comparator:LM393 U11
U 3 1 61685A0A
P 9100 1550
F 0 "U11" H 9058 1596 50  0000 L CNN
F 1 "LM393" H 9058 1505 50  0000 L CNN
F 2 "Package_SO:SOIC-8_3.9x4.9mm_P1.27mm" H 9100 1550 50  0001 C CNN
F 3 "http://www.ti.com/lit/ds/symlink/lm393.pdf" H 9100 1550 50  0001 C CNN
	3    9100 1550
	1    0    0    -1  
$EndComp
$Comp
L Device:R_US R12
U 1 1 61687F73
P 4800 2700
F 0 "R12" H 4868 2746 50  0000 L CNN
F 1 "47k" H 4868 2655 50  0000 L CNN
F 2 "Resistor_SMD:R_0805_2012Metric" V 4840 2690 50  0001 C CNN
F 3 "~" H 4800 2700 50  0001 C CNN
	1    4800 2700
	1    0    0    -1  
$EndComp
$Comp
L Device:R_US R11
U 1 1 61688290
P 3800 2700
F 0 "R11" H 3868 2746 50  0000 L CNN
F 1 "330" H 3868 2655 50  0000 L CNN
F 2 "Resistor_SMD:R_0805_2012Metric" V 3840 2690 50  0001 C CNN
F 3 "~" H 3800 2700 50  0001 C CNN
	1    3800 2700
	1    0    0    -1  
$EndComp
Wire Wire Line
	4800 2850 4800 3100
Wire Wire Line
	4800 3100 4600 3100
Wire Wire Line
	4800 2550 4800 2500
Wire Wire Line
	4800 2500 4500 2500
Wire Wire Line
	3800 2500 3800 2550
Wire Wire Line
	3800 2850 3800 3000
Wire Wire Line
	3800 3000 4000 3000
$Comp
L Device:R_US R13
U 1 1 6168ABAE
P 4950 3600
F 0 "R13" V 4745 3600 50  0000 C CNN
F 1 "1.3M" V 4836 3600 50  0000 C CNN
F 2 "Resistor_SMD:R_0805_2012Metric" V 4990 3590 50  0001 C CNN
F 3 "~" H 4950 3600 50  0001 C CNN
	1    4950 3600
	0    1    1    0   
$EndComp
Wire Wire Line
	4000 3200 3800 3200
Wire Wire Line
	3800 3200 3800 3600
Wire Wire Line
	3800 4000 4000 4000
Wire Wire Line
	4800 3600 3800 3600
Connection ~ 3800 3600
Wire Wire Line
	3800 3600 3800 4000
$Comp
L Device:D_Zener D11
U 1 1 6168D534
P 1000 3350
F 0 "D11" V 954 3430 50  0000 L CNN
F 1 "5.6v" V 1045 3430 50  0000 L CNN
F 2 "Resistor_THT:R_Axial_DIN0204_L3.6mm_D1.6mm_P7.62mm_Horizontal" H 1000 3350 50  0001 C CNN
F 3 "~" H 1000 3350 50  0001 C CNN
	1    1000 3350
	0    1    1    0   
$EndComp
$Comp
L Diode:1.5KExxA D13
U 1 1 6168E256
P 2950 3700
F 0 "D13" V 2904 3780 50  0000 L CNN
F 1 "1.5KExxA" V 2995 3780 50  0000 L CNN
F 2 "Resistor_THT:R_Axial_DIN0204_L3.6mm_D1.6mm_P7.62mm_Horizontal" H 2950 3500 50  0001 C CNN
F 3 "https://www.vishay.com/docs/88301/15ke.pdf" H 2900 3700 50  0001 C CNN
	1    2950 3700
	0    1    1    0   
$EndComp
$Comp
L Device:D D12
U 1 1 6168F043
P 1000 4200
F 0 "D12" V 1046 4120 50  0000 R CNN
F 1 "1n4148" V 955 4120 50  0000 R CNN
F 2 "Resistor_THT:R_Axial_DIN0204_L3.6mm_D1.6mm_P7.62mm_Horizontal" H 1000 4200 50  0001 C CNN
F 3 "~" H 1000 4200 50  0001 C CNN
	1    1000 4200
	0    -1   -1   0   
$EndComp
$Comp
L Device:R_US R14
U 1 1 6168FC87
P 1450 3950
F 0 "R14" H 1518 3996 50  0000 L CNN
F 1 "330k" H 1518 3905 50  0000 L CNN
F 2 "Resistor_SMD:R_0805_2012Metric" V 1490 3940 50  0001 C CNN
F 3 "~" H 1450 3950 50  0001 C CNN
	1    1450 3950
	1    0    0    -1  
$EndComp
$Comp
L Device:R_US R15
U 1 1 616902D1
P 1450 4450
F 0 "R15" H 1518 4496 50  0000 L CNN
F 1 "100" H 1518 4405 50  0000 L CNN
F 2 "Resistor_SMD:R_0805_2012Metric" V 1490 4440 50  0001 C CNN
F 3 "~" H 1450 4450 50  0001 C CNN
	1    1450 4450
	1    0    0    -1  
$EndComp
$Comp
L power:GND #PWR012
U 1 1 61691796
P 1450 4700
F 0 "#PWR012" H 1450 4450 50  0001 C CNN
F 1 "GND" H 1455 4527 50  0000 C CNN
F 2 "" H 1450 4700 50  0001 C CNN
F 3 "" H 1450 4700 50  0001 C CNN
	1    1450 4700
	1    0    0    -1  
$EndComp
Wire Wire Line
	1450 4100 1450 4200
Wire Wire Line
	4000 4200 1450 4200
Connection ~ 1450 4200
Wire Wire Line
	1450 4200 1450 4300
Wire Wire Line
	1450 4600 1450 4700
Wire Wire Line
	1000 3500 1000 3750
Wire Wire Line
	1450 3800 1450 3750
Wire Wire Line
	1450 3750 1000 3750
Connection ~ 1000 3750
Wire Wire Line
	1000 3750 1000 4050
Wire Wire Line
	3800 3000 1000 3000
Wire Wire Line
	1000 3000 1000 3200
Connection ~ 3800 3000
$Comp
L Device:R_US R16
U 1 1 616A9F6C
P 3300 3200
F 0 "R16" V 3400 3200 50  0000 C CNN
F 1 "220k" V 3500 3200 50  0000 C CNN
F 2 "Resistor_SMD:R_0805_2012Metric" V 3340 3190 50  0001 C CNN
F 3 "~" H 3300 3200 50  0001 C CNN
	1    3300 3200
	0    1    1    0   
$EndComp
Text GLabel 2800 3200 0    50   Input ~ 0
globalvcc
Wire Wire Line
	3450 3200 3800 3200
Connection ~ 3800 3200
Wire Wire Line
	3150 3200 2950 3200
Wire Wire Line
	2950 3200 2950 3400
Wire Wire Line
	2800 3200 2950 3200
Connection ~ 2950 3200
$Comp
L power:GND #PWR011
U 1 1 616B19AB
P 1000 4700
F 0 "#PWR011" H 1000 4450 50  0001 C CNN
F 1 "GND" H 1005 4527 50  0000 C CNN
F 2 "" H 1000 4700 50  0001 C CNN
F 3 "" H 1000 4700 50  0001 C CNN
	1    1000 4700
	1    0    0    -1  
$EndComp
Wire Wire Line
	1000 4700 1000 4350
$Comp
L power:GND #PWR014
U 1 1 616B5A17
P 2950 3950
F 0 "#PWR014" H 2950 3700 50  0001 C CNN
F 1 "GND" H 2955 3777 50  0000 C CNN
F 2 "" H 2950 3950 50  0001 C CNN
F 3 "" H 2950 3950 50  0001 C CNN
	1    2950 3950
	1    0    0    -1  
$EndComp
Wire Wire Line
	2950 3850 2950 3950
$Comp
L Device:Fuse_Small F11
U 1 1 616B77F7
P 2550 3400
F 0 "F11" H 2550 3500 50  0000 C CNN
F 1 "0.1" H 2550 3300 50  0000 C CNN
F 2 "Fuse:Fuse_1206_3216Metric" H 2550 3400 50  0001 C CNN
F 3 "~" H 2550 3400 50  0001 C CNN
	1    2550 3400
	1    0    0    -1  
$EndComp
$Comp
L Connector:Conn_01x02_Male J11
U 1 1 616B86EC
P 1850 3400
F 0 "J11" H 1958 3581 50  0000 C CNN
F 1 "Conn_probes" H 1958 3490 50  0000 C CNN
F 2 "Connector_JST:JST_EH_B2B-EH-A_1x02_P2.50mm_Vertical" H 1850 3400 50  0001 C CNN
F 3 "~" H 1850 3400 50  0001 C CNN
	1    1850 3400
	1    0    0    -1  
$EndComp
Wire Wire Line
	2050 3400 2450 3400
Wire Wire Line
	2650 3400 2950 3400
Connection ~ 2950 3400
Wire Wire Line
	2950 3400 2950 3550
Wire Wire Line
	2050 3500 2200 3500
Wire Wire Line
	2200 3500 2200 3950
$Comp
L power:GND #PWR013
U 1 1 616BDA87
P 2200 3950
F 0 "#PWR013" H 2200 3700 50  0001 C CNN
F 1 "GND" H 2205 3777 50  0000 C CNN
F 2 "" H 2200 3950 50  0001 C CNN
F 3 "" H 2200 3950 50  0001 C CNN
	1    2200 3950
	1    0    0    -1  
$EndComp
$Comp
L Device:R_US R20
U 1 1 616C7D7D
P 5750 3350
F 0 "R20" H 5682 3304 50  0000 R CNN
F 1 "330k" H 5682 3395 50  0000 R CNN
F 2 "Resistor_SMD:R_0805_2012Metric" V 5790 3340 50  0001 C CNN
F 3 "~" H 5750 3350 50  0001 C CNN
	1    5750 3350
	-1   0    0    1   
$EndComp
$Comp
L Device:R_US R25
U 1 1 616C8A35
P 5750 3850
F 0 "R25" H 5818 3896 50  0000 L CNN
F 1 "100k" H 5818 3805 50  0000 L CNN
F 2 "Resistor_SMD:R_0805_2012Metric" V 5790 3840 50  0001 C CNN
F 3 "~" H 5750 3850 50  0001 C CNN
	1    5750 3850
	1    0    0    -1  
$EndComp
$Comp
L power:GND #PWR051
U 1 1 616C8D3F
P 5750 4100
F 0 "#PWR051" H 5750 3850 50  0001 C CNN
F 1 "GND" H 5755 3927 50  0000 C CNN
F 2 "" H 5750 4100 50  0001 C CNN
F 3 "" H 5750 4100 50  0001 C CNN
	1    5750 4100
	1    0    0    -1  
$EndComp
Text GLabel 5750 3100 1    50   Input ~ 0
globalvcc
Wire Wire Line
	5750 3100 5750 3200
Wire Wire Line
	5750 3500 5750 3600
Wire Wire Line
	5750 3600 5100 3600
Connection ~ 5750 3600
Wire Wire Line
	5750 3600 5750 3700
Wire Wire Line
	5750 4000 5750 4100
Text GLabel 5000 3100 2    50   Output ~ 0
Inh
Wire Wire Line
	4800 3100 5000 3100
Connection ~ 4800 3100
Text GLabel 5000 4100 2    50   Output ~ 0
U11_4093
Wire Wire Line
	5000 4100 4600 4100
$Comp
L 4xxx:HEF4093B U51
U 3 1 616DC166
P 8800 5800
F 0 "U51" H 8800 6125 50  0000 C CNN
F 1 "HEF4093B" H 8800 6034 50  0000 C CNN
F 2 "Package_SO:SOIC-14_3.9x8.7mm_P1.27mm" H 8800 5800 50  0001 C CNN
F 3 "https://assets.nexperia.com/documents/data-sheet/HEF4093B.pdf" H 8800 5800 50  0001 C CNN
	3    8800 5800
	-1   0    0    -1  
$EndComp
$Comp
L 4xxx:HEF4093B U51
U 5 1 616E08B5
P 9650 1550
F 0 "U51" H 9880 1596 50  0000 L CNN
F 1 "HEF4093B" H 9880 1505 50  0000 L CNN
F 2 "Package_SO:SOIC-14_3.9x8.7mm_P1.27mm" H 9650 1550 50  0001 C CNN
F 3 "https://assets.nexperia.com/documents/data-sheet/HEF4093B.pdf" H 9650 1550 50  0001 C CNN
	5    9650 1550
	1    0    0    -1  
$EndComp
$Comp
L 4xxx:4046 U101
U 1 1 616E7DB1
P 8750 4050
F 0 "U101" H 8500 4800 50  0000 C CNN
F 1 "4046" H 8500 4700 50  0000 C CNN
F 2 "Package_SO:SOIC-16_3.9x9.9mm_P1.27mm" H 8750 4050 50  0001 C CNN
F 3 "https://assets.nexperia.com/documents/data-sheet/HEF4046B.pdf" H 8750 4050 50  0001 C CNN
	1    8750 4050
	1    0    0    -1  
$EndComp
Text GLabel 9350 4050 2    50   Input ~ 0
VCO-In
Wire Wire Line
	9250 4050 9350 4050
Wire Wire Line
	3850 1950 3950 1950
Wire Wire Line
	3450 1950 3550 1950
Wire Wire Line
	4350 1950 4250 1950
Text GLabel 4350 1950 2    50   Output ~ 0
VCO-In
$Comp
L Diode:1N4148WS D51
U 1 1 61728428
P 4100 1950
F 0 "D51" H 4100 1733 50  0000 C CNN
F 1 "1N4148WS" H 4100 1824 50  0000 C CNN
F 2 "Resistor_THT:R_Axial_DIN0204_L3.6mm_D1.6mm_P7.62mm_Horizontal" H 4100 1775 50  0001 C CNN
F 3 "https://www.vishay.com/docs/85751/1n4148ws.pdf" H 4100 1950 50  0001 C CNN
	1    4100 1950
	-1   0    0    1   
$EndComp
$Comp
L Device:R_US R53
U 1 1 61727216
P 3700 1950
F 0 "R53" V 3905 1950 50  0000 C CNN
F 1 "47k" V 3814 1950 50  0000 C CNN
F 2 "Resistor_SMD:R_0805_2012Metric" V 3740 1940 50  0001 C CNN
F 3 "~" H 3700 1950 50  0001 C CNN
	1    3700 1950
	0    -1   -1   0   
$EndComp
Connection ~ 1950 1150
Wire Wire Line
	1950 1150 1950 1100
Wire Wire Line
	1950 1850 2050 1850
Wire Wire Line
	1950 1150 1950 1850
Wire Wire Line
	1700 1150 1950 1150
Wire Wire Line
	1950 750  1950 800 
Wire Wire Line
	1700 750  1950 750 
Text GLabel 1700 750  0    50   Input ~ 0
globalvcc
Text GLabel 1700 1150 0    50   Input ~ 0
U11_4093
$Comp
L Device:R_US R52
U 1 1 6171C55C
P 1950 950
F 0 "R52" H 1882 904 50  0000 R CNN
F 1 "47k" H 1882 995 50  0000 R CNN
F 2 "Resistor_SMD:R_0805_2012Metric" V 1990 940 50  0001 C CNN
F 3 "~" H 1950 950 50  0001 C CNN
	1    1950 950 
	-1   0    0    1   
$EndComp
Connection ~ 1850 2050
Wire Wire Line
	2050 2050 1850 2050
Wire Wire Line
	1850 1600 1650 1600
Wire Wire Line
	1850 2050 1850 1600
Wire Wire Line
	1800 2050 1850 2050
Wire Wire Line
	1000 2400 1000 2500
Wire Wire Line
	1000 2050 1000 2200
Connection ~ 1000 2050
Wire Wire Line
	1150 2050 1150 1950
Connection ~ 1150 2050
Wire Wire Line
	1150 2050 1000 2050
Wire Wire Line
	1150 1950 1200 1950
Wire Wire Line
	1150 2150 1150 2050
Wire Wire Line
	1200 2150 1150 2150
Wire Wire Line
	1000 1600 1000 2050
Wire Wire Line
	1350 1600 1000 1600
$Comp
L power:GND #PWR052
U 1 1 616FF777
P 1000 2500
F 0 "#PWR052" H 1000 2250 50  0001 C CNN
F 1 "GND" H 1005 2327 50  0000 C CNN
F 2 "" H 1000 2500 50  0001 C CNN
F 3 "" H 1000 2500 50  0001 C CNN
	1    1000 2500
	1    0    0    -1  
$EndComp
$Comp
L Device:C_Polarized_Small_US C51
U 1 1 616FF079
P 1000 2300
F 0 "C51" H 1091 2346 50  0000 L CNN
F 1 "47u" H 1091 2255 50  0000 L CNN
F 2 "Capacitor_SMD:CP_Elec_5x4.4" H 1000 2300 50  0001 C CNN
F 3 "~" H 1000 2300 50  0001 C CNN
	1    1000 2300
	1    0    0    -1  
$EndComp
$Comp
L Device:R_US R51
U 1 1 616FD742
P 1500 1600
F 0 "R51" V 1295 1600 50  0000 C CNN
F 1 "22k" V 1386 1600 50  0000 C CNN
F 2 "Resistor_SMD:R_0805_2012Metric" V 1540 1590 50  0001 C CNN
F 3 "~" H 1500 1600 50  0001 C CNN
	1    1500 1600
	0    1    1    0   
$EndComp
Wire Wire Line
	2750 1950 2750 2050
Connection ~ 2750 1950
Wire Wire Line
	2650 1950 2750 1950
Wire Wire Line
	2750 2050 2850 2050
Wire Wire Line
	2750 1850 2750 1950
Wire Wire Line
	2850 1850 2750 1850
$Comp
L 4xxx:HEF4093B U51
U 4 1 616DE6FF
P 3150 1950
F 0 "U51" H 3150 2275 50  0000 C CNN
F 1 "HEF4093B" H 3150 2184 50  0000 C CNN
F 2 "Package_SO:SOIC-14_3.9x8.7mm_P1.27mm" H 3150 1950 50  0001 C CNN
F 3 "https://assets.nexperia.com/documents/data-sheet/HEF4093B.pdf" H 3150 1950 50  0001 C CNN
	4    3150 1950
	1    0    0    -1  
$EndComp
$Comp
L 4xxx:HEF4093B U51
U 2 1 616DA8B1
P 2350 1950
F 0 "U51" H 2350 2275 50  0000 C CNN
F 1 "HEF4093B" H 2350 2184 50  0000 C CNN
F 2 "Package_SO:SOIC-14_3.9x8.7mm_P1.27mm" H 2350 1950 50  0001 C CNN
F 3 "https://assets.nexperia.com/documents/data-sheet/HEF4093B.pdf" H 2350 1950 50  0001 C CNN
	2    2350 1950
	1    0    0    -1  
$EndComp
$Comp
L 4xxx:HEF4093B U51
U 1 1 616D8B5B
P 1500 2050
F 0 "U51" H 1500 2375 50  0000 C CNN
F 1 "HEF4093B" H 1500 2284 50  0000 C CNN
F 2 "Package_SO:SOIC-14_3.9x8.7mm_P1.27mm" H 1500 2050 50  0001 C CNN
F 3 "https://assets.nexperia.com/documents/data-sheet/HEF4093B.pdf" H 1500 2050 50  0001 C CNN
	1    1500 2050
	1    0    0    -1  
$EndComp
Text Notes 2450 4800 0    50   ~ 0
compare signals from probs & vrefs\nprobes difference : one on ground\n
Wire Notes Line
	1550 2500 3500 2500
Text GLabel 7800 1000 0    50   Input ~ 0
globalvcc
$Comp
L Device:R_US R54
U 1 1 617D261C
P 8250 5800
F 0 "R54" V 8045 5800 50  0000 C CNN
F 1 "470k" V 8136 5800 50  0000 C CNN
F 2 "Resistor_SMD:R_0805_2012Metric" V 8290 5790 50  0001 C CNN
F 3 "~" H 8250 5800 50  0001 C CNN
	1    8250 5800
	0    1    1    0   
$EndComp
$Comp
L Device:C_Polarized_Small_US C52
U 1 1 617D34FB
P 8000 6000
F 0 "C52" H 8091 6046 50  0000 L CNN
F 1 "47u" H 8091 5955 50  0000 L CNN
F 2 "Capacitor_SMD:CP_Elec_5x4.4" H 8000 6000 50  0001 C CNN
F 3 "~" H 8000 6000 50  0001 C CNN
	1    8000 6000
	1    0    0    -1  
$EndComp
$Comp
L power:GND #PWR053
U 1 1 617D4382
P 8000 6200
F 0 "#PWR053" H 8000 5950 50  0001 C CNN
F 1 "GND" H 8005 6027 50  0000 C CNN
F 2 "" H 8000 6200 50  0001 C CNN
F 3 "" H 8000 6200 50  0001 C CNN
	1    8000 6200
	1    0    0    -1  
$EndComp
Text GLabel 7900 5800 0    50   Output ~ 0
back_inh
Wire Wire Line
	8500 5800 8400 5800
Wire Wire Line
	8100 5800 8000 5800
Wire Wire Line
	8000 5900 8000 5800
Connection ~ 8000 5800
Wire Wire Line
	8000 5800 7900 5800
Wire Wire Line
	8000 6100 8000 6200
Wire Wire Line
	9100 5700 9150 5700
Wire Wire Line
	9150 5700 9150 5800
Wire Wire Line
	9150 5900 9100 5900
Text GLabel 8150 4550 0    50   Input ~ 0
Inh
Wire Wire Line
	8250 4550 8150 4550
Text GLabel 9200 5800 2    50   Input ~ 0
Inh
Wire Wire Line
	9150 5800 9200 5800
Connection ~ 9150 5800
Wire Wire Line
	9150 5800 9150 5900
Wire Notes Line
	1000 5250 10500 5250
Text Notes 9700 5900 0    50   ~ 0
feed back to Q2\nfrom inhibit
NoConn ~ 9250 4250
NoConn ~ 9250 3750
NoConn ~ 9250 4350
NoConn ~ 9250 4450
NoConn ~ 8250 4350
NoConn ~ 9250 3850
Text GLabel 7550 3150 0    50   Input ~ 0
globalvcc
Wire Wire Line
	8750 3350 8750 3150
Wire Wire Line
	8750 3150 7600 3150
$Comp
L power:GND #PWR09
U 1 1 6181F71E
P 8750 4900
F 0 "#PWR09" H 8750 4650 50  0001 C CNN
F 1 "GND" H 8755 4727 50  0000 C CNN
F 2 "" H 8750 4900 50  0001 C CNN
F 3 "" H 8750 4900 50  0001 C CNN
	1    8750 4900
	1    0    0    -1  
$EndComp
Wire Wire Line
	8750 4850 8750 4900
$Comp
L power:GND #PWR07
U 1 1 618287DD
P 7600 3800
F 0 "#PWR07" H 7600 3550 50  0001 C CNN
F 1 "GND" H 7605 3627 50  0000 C CNN
F 2 "" H 7600 3800 50  0001 C CNN
F 3 "" H 7600 3800 50  0001 C CNN
	1    7600 3800
	1    0    0    -1  
$EndComp
Wire Wire Line
	8250 3750 8050 3750
Wire Wire Line
	7600 3750 7600 3800
$Comp
L Device:C_Small C2
U 1 1 6183284A
P 7600 3450
F 0 "C2" H 7692 3496 50  0000 L CNN
F 1 "100n" H 7692 3405 50  0000 L CNN
F 2 "Capacitor_SMD:C_0603_1608Metric" H 7600 3450 50  0001 C CNN
F 3 "~" H 7600 3450 50  0001 C CNN
	1    7600 3450
	1    0    0    -1  
$EndComp
Wire Wire Line
	7600 3350 7600 3150
Connection ~ 7600 3150
Wire Wire Line
	7600 3150 7550 3150
Wire Wire Line
	7600 3550 7600 3750
Connection ~ 7600 3750
Wire Wire Line
	8050 3750 8050 3650
Wire Wire Line
	8050 3650 8250 3650
Connection ~ 8050 3750
Wire Wire Line
	8050 3750 7600 3750
$Comp
L Device:C_Small C3
U 1 1 618486D8
P 8050 4000
F 0 "C3" H 7850 4050 50  0000 L CNN
F 1 "100n" H 7800 3950 50  0000 L CNN
F 2 "Capacitor_SMD:C_0603_1608Metric" H 8050 4000 50  0001 C CNN
F 3 "~" H 8050 4000 50  0001 C CNN
	1    8050 4000
	1    0    0    -1  
$EndComp
Wire Wire Line
	8050 3900 8050 3850
Wire Wire Line
	8050 3850 8200 3850
Wire Wire Line
	8200 3850 8200 3950
Wire Wire Line
	8200 3950 8250 3950
Wire Wire Line
	8050 4100 8050 4150
Wire Wire Line
	8050 4150 8200 4150
Wire Wire Line
	8200 4150 8200 4050
Wire Wire Line
	8200 4050 8250 4050
$Comp
L Device:R_US R3
U 1 1 61857F57
P 7600 4450
F 0 "R3" H 7532 4404 50  0000 R CNN
F 1 "1k" H 7532 4495 50  0000 R CNN
F 2 "Resistor_SMD:R_0805_2012Metric" V 7640 4440 50  0001 C CNN
F 3 "~" H 7600 4450 50  0001 C CNN
	1    7600 4450
	-1   0    0    1   
$EndComp
Wire Wire Line
	8250 4250 7600 4250
Wire Wire Line
	7600 4250 7600 4300
$Comp
L power:GND #PWR08
U 1 1 6185E095
P 7600 4900
F 0 "#PWR08" H 7600 4650 50  0001 C CNN
F 1 "GND" H 7605 4727 50  0000 C CNN
F 2 "" H 7600 4900 50  0001 C CNN
F 3 "" H 7600 4900 50  0001 C CNN
	1    7600 4900
	1    0    0    -1  
$EndComp
Wire Wire Line
	7600 4600 7600 4900
$Comp
L Device:Buzzer BZ1
U 1 1 61864ADD
P 9950 3750
F 0 "BZ1" H 10102 3779 50  0000 L CNN
F 1 "Buzzer" H 10102 3688 50  0000 L CNN
F 2 "Buzzer_Beeper:Buzzer_TDK_PS1240P02BT_D12.2mm_H6.5mm" V 9925 3850 50  0001 C CNN
F 3 "~" V 9925 3850 50  0001 C CNN
	1    9950 3750
	1    0    0    -1  
$EndComp
$Comp
L power:GND #PWR010
U 1 1 61865073
P 9750 4900
F 0 "#PWR010" H 9750 4650 50  0001 C CNN
F 1 "GND" H 9755 4727 50  0000 C CNN
F 2 "" H 9750 4900 50  0001 C CNN
F 3 "" H 9750 4900 50  0001 C CNN
	1    9750 4900
	1    0    0    -1  
$EndComp
Wire Wire Line
	9250 3650 9850 3650
Text Notes 9500 3450 0    50   ~ 0
Buzzer must be a piezzo one\nwithout internal oscillator
Wire Wire Line
	9850 3850 9750 3850
Wire Wire Line
	9750 3850 9750 4900
Wire Notes Line
	6500 2500 10500 2500
$Comp
L power:GND #PWR015
U 1 1 618B72A5
P 7800 2150
F 0 "#PWR015" H 7800 1900 50  0001 C CNN
F 1 "GND" H 7805 1977 50  0000 C CNN
F 2 "" H 7800 2150 50  0001 C CNN
F 3 "" H 7800 2150 50  0001 C CNN
	1    7800 2150
	1    0    0    -1  
$EndComp
$Comp
L Device:C_Polarized_US C4
U 1 1 618B80CA
P 7950 1550
F 0 "C4" H 8065 1596 50  0000 L CNN
F 1 "100u" H 8065 1505 50  0000 L CNN
F 2 "Capacitor_SMD:CP_Elec_6.3x4.9" H 7950 1550 50  0001 C CNN
F 3 "~" H 7950 1550 50  0001 C CNN
	1    7950 1550
	1    0    0    -1  
$EndComp
$Comp
L Device:C C5
U 1 1 618BEA44
P 8400 1550
F 0 "C5" H 8515 1596 50  0000 L CNN
F 1 "100n" H 8515 1505 50  0000 L CNN
F 2 "Capacitor_SMD:C_0603_1608Metric" H 8438 1400 50  0001 C CNN
F 3 "~" H 8400 1550 50  0001 C CNN
	1    8400 1550
	1    0    0    -1  
$EndComp
Wire Wire Line
	9650 1000 9000 1000
Wire Wire Line
	7800 2150 7800 2100
Wire Wire Line
	7800 2100 7950 2100
Wire Wire Line
	9650 2100 9650 2050
Wire Wire Line
	9000 1250 9000 1000
Connection ~ 9000 1000
Wire Wire Line
	9000 1850 9000 2100
Connection ~ 9000 2100
Wire Wire Line
	9000 2100 9650 2100
Wire Wire Line
	8400 1700 8400 2100
Connection ~ 8400 2100
Wire Wire Line
	8400 2100 9000 2100
Wire Wire Line
	8400 1400 8400 1000
Connection ~ 8400 1000
Wire Wire Line
	8400 1000 7950 1000
Wire Wire Line
	7950 1400 7950 1000
Connection ~ 7950 1000
Wire Wire Line
	7950 1000 7800 1000
Wire Wire Line
	7950 1700 7950 2100
Connection ~ 7950 2100
Wire Wire Line
	7950 2100 8400 2100
Wire Notes Line
	6500 1000 6500 5250
Text Notes 3500 1200 0    50   ~ 0
VCO in signal generator\nusing both U51A oscillator\n& probe signal variation
Text Notes 3200 4050 0    50   ~ 0
1.5KE8.2A\nmight be\ngood\n
Text Notes 2300 3850 0    50   ~ 0
option\nbut better\nto have\na fuse\n
Text GLabel 4350 2350 0    50   Input ~ 0
globalvcc
Wire Wire Line
	4350 2350 4500 2350
Wire Wire Line
	4500 2350 4500 2500
Connection ~ 4500 2500
Wire Wire Line
	4500 2500 3800 2500
Text Notes 9850 7000 0    50   ~ 0
All resistors are 1/4 watts\nmight have better components \nfor this but adapted to my\nown stock of components
Wire Wire Line
	9650 1050 9650 1000
Wire Wire Line
	2500 5800 2500 6000
Wire Wire Line
	8400 1000 9000 1000
$Comp
L power:PWR_FLAG #FLG0101
U 1 1 6194013D
P 5450 6000
F 0 "#FLG0101" H 5450 6075 50  0001 C CNN
F 1 "PWR_FLAG" H 5450 6350 50  0000 C CNN
F 2 "" H 5450 6000 50  0001 C CNN
F 3 "~" H 5450 6000 50  0001 C CNN
	1    5450 6000
	1    0    0    1   
$EndComp
Connection ~ 5450 5800
Wire Wire Line
	5450 5800 6000 5800
Wire Wire Line
	5450 6000 5450 5800
Text Notes 5050 6250 0    50   ~ 0
Ignore warning here\non electrical test
$Comp
L Device:Q_PMOS_DGS Q1
U 1 1 619C4149
P 4750 5900
F 0 "Q1" V 5092 5900 50  0000 C CNN
F 1 "Q_PMOS_DGS" V 5001 5900 50  0000 C CNN
F 2 "Package_DIP:Vishay_HVM-DIP-3_W7.62mm" H 4950 6000 50  0001 C CNN
F 3 "~" H 4750 5900 50  0001 C CNN
	1    4750 5900
	0    1    -1   0   
$EndComp
$EndSCHEMATC
