%FSLAX45Y45*%
G04 Gerber Fmt 4.5, Leading zero omitted, Abs format (unit mm)*
G04 Created by KiCad (PCBNEW 5.99.0+really5.1.10+dfsg1-1) date 2021-10-09 23:59:44*
%MOMM*%
%LPD*%
G01*
G04 APERTURE LIST*
%TA.AperFunction,Profile*%
%ADD10C,0.050000*%
%TD*%
%ADD11C,0.200000*%
%ADD12C,0.300000*%
G04 APERTURE END LIST*
D10*
X12192000Y-12065000D02*
X15240000Y-12065000D01*
X12192000Y-8255000D02*
X12192000Y-12065000D01*
X17780000Y-8255000D02*
X12192000Y-8255000D01*
X17780000Y-12065000D02*
X17780000Y-8255000D01*
X15240000Y-12065000D02*
X17780000Y-12065000D01*
D11*
X12228000Y-9254500D02*
X12388000Y-9414500D01*
X12388000Y-9254500D02*
X12228000Y-9414500D01*
D12*
X12228428Y-12533214D02*
X12228428Y-12233214D01*
X12299857Y-12233214D01*
X12342714Y-12247500D01*
X12371286Y-12276071D01*
X12385571Y-12304643D01*
X12399857Y-12361786D01*
X12399857Y-12404643D01*
X12385571Y-12461786D01*
X12371286Y-12490357D01*
X12342714Y-12518929D01*
X12299857Y-12533214D01*
X12228428Y-12533214D01*
X12528428Y-12533214D02*
X12528428Y-12333214D01*
X12528428Y-12390357D02*
X12542714Y-12361786D01*
X12557000Y-12347500D01*
X12585571Y-12333214D01*
X12614143Y-12333214D01*
X12714143Y-12533214D02*
X12714143Y-12333214D01*
X12714143Y-12233214D02*
X12699857Y-12247500D01*
X12714143Y-12261786D01*
X12728428Y-12247500D01*
X12714143Y-12233214D01*
X12714143Y-12261786D01*
X12899857Y-12533214D02*
X12871286Y-12518929D01*
X12857000Y-12490357D01*
X12857000Y-12233214D01*
X13057000Y-12533214D02*
X13028428Y-12518929D01*
X13014143Y-12490357D01*
X13014143Y-12233214D01*
X13399857Y-12533214D02*
X13399857Y-12233214D01*
X13499857Y-12447500D01*
X13599857Y-12233214D01*
X13599857Y-12533214D01*
X13871286Y-12533214D02*
X13871286Y-12376071D01*
X13857000Y-12347500D01*
X13828428Y-12333214D01*
X13771286Y-12333214D01*
X13742714Y-12347500D01*
X13871286Y-12518929D02*
X13842714Y-12533214D01*
X13771286Y-12533214D01*
X13742714Y-12518929D01*
X13728428Y-12490357D01*
X13728428Y-12461786D01*
X13742714Y-12433214D01*
X13771286Y-12418929D01*
X13842714Y-12418929D01*
X13871286Y-12404643D01*
X14014143Y-12333214D02*
X14014143Y-12633214D01*
X14014143Y-12347500D02*
X14042714Y-12333214D01*
X14099857Y-12333214D01*
X14128428Y-12347500D01*
X14142714Y-12361786D01*
X14157000Y-12390357D01*
X14157000Y-12476071D01*
X14142714Y-12504643D01*
X14128428Y-12518929D01*
X14099857Y-12533214D01*
X14042714Y-12533214D01*
X14014143Y-12518929D01*
X14285571Y-12504643D02*
X14299857Y-12518929D01*
X14285571Y-12533214D01*
X14271286Y-12518929D01*
X14285571Y-12504643D01*
X14285571Y-12533214D01*
X14285571Y-12347500D02*
X14299857Y-12361786D01*
X14285571Y-12376071D01*
X14271286Y-12361786D01*
X14285571Y-12347500D01*
X14285571Y-12376071D01*
X11782000Y-12947500D02*
X11942000Y-13107500D01*
X11942000Y-12947500D02*
X11782000Y-13107500D01*
X12385571Y-13163214D02*
X12214143Y-13163214D01*
X12299857Y-13163214D02*
X12299857Y-12863214D01*
X12271286Y-12906071D01*
X12242714Y-12934643D01*
X12214143Y-12948929D01*
X12514143Y-13134643D02*
X12528428Y-13148929D01*
X12514143Y-13163214D01*
X12499857Y-13148929D01*
X12514143Y-13134643D01*
X12514143Y-13163214D01*
X12785571Y-12863214D02*
X12728428Y-12863214D01*
X12699857Y-12877500D01*
X12685571Y-12891786D01*
X12657000Y-12934643D01*
X12642714Y-12991786D01*
X12642714Y-13106071D01*
X12657000Y-13134643D01*
X12671286Y-13148929D01*
X12699857Y-13163214D01*
X12757000Y-13163214D01*
X12785571Y-13148929D01*
X12799857Y-13134643D01*
X12814143Y-13106071D01*
X12814143Y-13034643D01*
X12799857Y-13006071D01*
X12785571Y-12991786D01*
X12757000Y-12977500D01*
X12699857Y-12977500D01*
X12671286Y-12991786D01*
X12657000Y-13006071D01*
X12642714Y-13034643D01*
X12999857Y-12863214D02*
X13028428Y-12863214D01*
X13057000Y-12877500D01*
X13071286Y-12891786D01*
X13085571Y-12920357D01*
X13099857Y-12977500D01*
X13099857Y-13048929D01*
X13085571Y-13106071D01*
X13071286Y-13134643D01*
X13057000Y-13148929D01*
X13028428Y-13163214D01*
X12999857Y-13163214D01*
X12971286Y-13148929D01*
X12957000Y-13134643D01*
X12942714Y-13106071D01*
X12928428Y-13048929D01*
X12928428Y-12977500D01*
X12942714Y-12920357D01*
X12957000Y-12891786D01*
X12971286Y-12877500D01*
X12999857Y-12863214D01*
X13285571Y-12863214D02*
X13314143Y-12863214D01*
X13342714Y-12877500D01*
X13357000Y-12891786D01*
X13371286Y-12920357D01*
X13385571Y-12977500D01*
X13385571Y-13048929D01*
X13371286Y-13106071D01*
X13357000Y-13134643D01*
X13342714Y-13148929D01*
X13314143Y-13163214D01*
X13285571Y-13163214D01*
X13257000Y-13148929D01*
X13242714Y-13134643D01*
X13228428Y-13106071D01*
X13214143Y-13048929D01*
X13214143Y-12977500D01*
X13228428Y-12920357D01*
X13242714Y-12891786D01*
X13257000Y-12877500D01*
X13285571Y-12863214D01*
X13514143Y-13163214D02*
X13514143Y-12963214D01*
X13514143Y-12991786D02*
X13528428Y-12977500D01*
X13557000Y-12963214D01*
X13599857Y-12963214D01*
X13628428Y-12977500D01*
X13642714Y-13006071D01*
X13642714Y-13163214D01*
X13642714Y-13006071D02*
X13657000Y-12977500D01*
X13685571Y-12963214D01*
X13728428Y-12963214D01*
X13757000Y-12977500D01*
X13771286Y-13006071D01*
X13771286Y-13163214D01*
X13914143Y-13163214D02*
X13914143Y-12963214D01*
X13914143Y-12991786D02*
X13928428Y-12977500D01*
X13957000Y-12963214D01*
X13999857Y-12963214D01*
X14028428Y-12977500D01*
X14042714Y-13006071D01*
X14042714Y-13163214D01*
X14042714Y-13006071D02*
X14057000Y-12977500D01*
X14085571Y-12963214D01*
X14128428Y-12963214D01*
X14157000Y-12977500D01*
X14171286Y-13006071D01*
X14171286Y-13163214D01*
X14757000Y-12848929D02*
X14499857Y-13234643D01*
X15142714Y-12863214D02*
X15171286Y-12863214D01*
X15199857Y-12877500D01*
X15214143Y-12891786D01*
X15228428Y-12920357D01*
X15242714Y-12977500D01*
X15242714Y-13048929D01*
X15228428Y-13106071D01*
X15214143Y-13134643D01*
X15199857Y-13148929D01*
X15171286Y-13163214D01*
X15142714Y-13163214D01*
X15114143Y-13148929D01*
X15099857Y-13134643D01*
X15085571Y-13106071D01*
X15071286Y-13048929D01*
X15071286Y-12977500D01*
X15085571Y-12920357D01*
X15099857Y-12891786D01*
X15114143Y-12877500D01*
X15142714Y-12863214D01*
X15371286Y-13134643D02*
X15385571Y-13148929D01*
X15371286Y-13163214D01*
X15357000Y-13148929D01*
X15371286Y-13134643D01*
X15371286Y-13163214D01*
X15571286Y-12863214D02*
X15599857Y-12863214D01*
X15628428Y-12877500D01*
X15642714Y-12891786D01*
X15657000Y-12920357D01*
X15671286Y-12977500D01*
X15671286Y-13048929D01*
X15657000Y-13106071D01*
X15642714Y-13134643D01*
X15628428Y-13148929D01*
X15599857Y-13163214D01*
X15571286Y-13163214D01*
X15542714Y-13148929D01*
X15528428Y-13134643D01*
X15514143Y-13106071D01*
X15499857Y-13048929D01*
X15499857Y-12977500D01*
X15514143Y-12920357D01*
X15528428Y-12891786D01*
X15542714Y-12877500D01*
X15571286Y-12863214D01*
X15928428Y-12863214D02*
X15871286Y-12863214D01*
X15842714Y-12877500D01*
X15828428Y-12891786D01*
X15799857Y-12934643D01*
X15785571Y-12991786D01*
X15785571Y-13106071D01*
X15799857Y-13134643D01*
X15814143Y-13148929D01*
X15842714Y-13163214D01*
X15899857Y-13163214D01*
X15928428Y-13148929D01*
X15942714Y-13134643D01*
X15957000Y-13106071D01*
X15957000Y-13034643D01*
X15942714Y-13006071D01*
X15928428Y-12991786D01*
X15899857Y-12977500D01*
X15842714Y-12977500D01*
X15814143Y-12991786D01*
X15799857Y-13006071D01*
X15785571Y-13034643D01*
X16057000Y-12863214D02*
X16242714Y-12863214D01*
X16142714Y-12977500D01*
X16185571Y-12977500D01*
X16214143Y-12991786D01*
X16228428Y-13006071D01*
X16242714Y-13034643D01*
X16242714Y-13106071D01*
X16228428Y-13134643D01*
X16214143Y-13148929D01*
X16185571Y-13163214D01*
X16099857Y-13163214D01*
X16071286Y-13148929D01*
X16057000Y-13134643D01*
X16428428Y-12863214D02*
X16457000Y-12863214D01*
X16485571Y-12877500D01*
X16499857Y-12891786D01*
X16514143Y-12920357D01*
X16528428Y-12977500D01*
X16528428Y-13048929D01*
X16514143Y-13106071D01*
X16499857Y-13134643D01*
X16485571Y-13148929D01*
X16457000Y-13163214D01*
X16428428Y-13163214D01*
X16399857Y-13148929D01*
X16385571Y-13134643D01*
X16371286Y-13106071D01*
X16357000Y-13048929D01*
X16357000Y-12977500D01*
X16371286Y-12920357D01*
X16385571Y-12891786D01*
X16399857Y-12877500D01*
X16428428Y-12863214D01*
X16642714Y-12863214D02*
X16642714Y-12920357D01*
X16757000Y-12863214D02*
X16757000Y-12920357D01*
X17199857Y-13277500D02*
X17185571Y-13263214D01*
X17157000Y-13220357D01*
X17142714Y-13191786D01*
X17128429Y-13148929D01*
X17114143Y-13077500D01*
X17114143Y-13020357D01*
X17128429Y-12948929D01*
X17142714Y-12906071D01*
X17157000Y-12877500D01*
X17185571Y-12834643D01*
X17199857Y-12820357D01*
X17471286Y-13163214D02*
X17299857Y-13163214D01*
X17385571Y-13163214D02*
X17385571Y-12863214D01*
X17357000Y-12906071D01*
X17328429Y-12934643D01*
X17299857Y-12948929D01*
X17828429Y-13163214D02*
X17828429Y-12863214D01*
X17957000Y-13163214D02*
X17957000Y-13006071D01*
X17942714Y-12977500D01*
X17914143Y-12963214D01*
X17871286Y-12963214D01*
X17842714Y-12977500D01*
X17828429Y-12991786D01*
X18142714Y-13163214D02*
X18114143Y-13148929D01*
X18099857Y-13134643D01*
X18085571Y-13106071D01*
X18085571Y-13020357D01*
X18099857Y-12991786D01*
X18114143Y-12977500D01*
X18142714Y-12963214D01*
X18185571Y-12963214D01*
X18214143Y-12977500D01*
X18228429Y-12991786D01*
X18242714Y-13020357D01*
X18242714Y-13106071D01*
X18228429Y-13134643D01*
X18214143Y-13148929D01*
X18185571Y-13163214D01*
X18142714Y-13163214D01*
X18414143Y-13163214D02*
X18385571Y-13148929D01*
X18371286Y-13120357D01*
X18371286Y-12863214D01*
X18642714Y-13148929D02*
X18614143Y-13163214D01*
X18557000Y-13163214D01*
X18528429Y-13148929D01*
X18514143Y-13120357D01*
X18514143Y-13006071D01*
X18528429Y-12977500D01*
X18557000Y-12963214D01*
X18614143Y-12963214D01*
X18642714Y-12977500D01*
X18657000Y-13006071D01*
X18657000Y-13034643D01*
X18514143Y-13063214D01*
X18757000Y-13277500D02*
X18771286Y-13263214D01*
X18799857Y-13220357D01*
X18814143Y-13191786D01*
X18828429Y-13148929D01*
X18842714Y-13077500D01*
X18842714Y-13020357D01*
X18828429Y-12948929D01*
X18814143Y-12906071D01*
X18799857Y-12877500D01*
X18771286Y-12834643D01*
X18757000Y-12820357D01*
X19299857Y-13277500D02*
X19285571Y-13263214D01*
X19257000Y-13220357D01*
X19242714Y-13191786D01*
X19228429Y-13148929D01*
X19214143Y-13077500D01*
X19214143Y-13020357D01*
X19228429Y-12948929D01*
X19242714Y-12906071D01*
X19257000Y-12877500D01*
X19285571Y-12834643D01*
X19299857Y-12820357D01*
X19414143Y-12963214D02*
X19414143Y-13163214D01*
X19414143Y-12991786D02*
X19428429Y-12977500D01*
X19457000Y-12963214D01*
X19499857Y-12963214D01*
X19528429Y-12977500D01*
X19542714Y-13006071D01*
X19542714Y-13163214D01*
X19728429Y-13163214D02*
X19699857Y-13148929D01*
X19685571Y-13134643D01*
X19671286Y-13106071D01*
X19671286Y-13020357D01*
X19685571Y-12991786D01*
X19699857Y-12977500D01*
X19728429Y-12963214D01*
X19771286Y-12963214D01*
X19799857Y-12977500D01*
X19814143Y-12991786D01*
X19828429Y-13020357D01*
X19828429Y-13106071D01*
X19814143Y-13134643D01*
X19799857Y-13148929D01*
X19771286Y-13163214D01*
X19728429Y-13163214D01*
X19914143Y-12963214D02*
X20028429Y-12963214D01*
X19957000Y-12863214D02*
X19957000Y-13120357D01*
X19971286Y-13148929D01*
X19999857Y-13163214D01*
X20028429Y-13163214D01*
X20357000Y-12963214D02*
X20357000Y-13263214D01*
X20357000Y-12977500D02*
X20385571Y-12963214D01*
X20442714Y-12963214D01*
X20471286Y-12977500D01*
X20485571Y-12991786D01*
X20499857Y-13020357D01*
X20499857Y-13106071D01*
X20485571Y-13134643D01*
X20471286Y-13148929D01*
X20442714Y-13163214D01*
X20385571Y-13163214D01*
X20357000Y-13148929D01*
X20671286Y-13163214D02*
X20642714Y-13148929D01*
X20628429Y-13120357D01*
X20628429Y-12863214D01*
X20914143Y-13163214D02*
X20914143Y-13006071D01*
X20899857Y-12977500D01*
X20871286Y-12963214D01*
X20814143Y-12963214D01*
X20785571Y-12977500D01*
X20914143Y-13148929D02*
X20885571Y-13163214D01*
X20814143Y-13163214D01*
X20785571Y-13148929D01*
X20771286Y-13120357D01*
X20771286Y-13091786D01*
X20785571Y-13063214D01*
X20814143Y-13048929D01*
X20885571Y-13048929D01*
X20914143Y-13034643D01*
X21014143Y-12963214D02*
X21128429Y-12963214D01*
X21057000Y-12863214D02*
X21057000Y-13120357D01*
X21071286Y-13148929D01*
X21099857Y-13163214D01*
X21128429Y-13163214D01*
X21342714Y-13148929D02*
X21314143Y-13163214D01*
X21257000Y-13163214D01*
X21228429Y-13148929D01*
X21214143Y-13120357D01*
X21214143Y-13006071D01*
X21228429Y-12977500D01*
X21257000Y-12963214D01*
X21314143Y-12963214D01*
X21342714Y-12977500D01*
X21357000Y-13006071D01*
X21357000Y-13034643D01*
X21214143Y-13063214D01*
X21614143Y-13163214D02*
X21614143Y-12863214D01*
X21614143Y-13148929D02*
X21585571Y-13163214D01*
X21528429Y-13163214D01*
X21499857Y-13148929D01*
X21485571Y-13134643D01*
X21471286Y-13106071D01*
X21471286Y-13020357D01*
X21485571Y-12991786D01*
X21499857Y-12977500D01*
X21528429Y-12963214D01*
X21585571Y-12963214D01*
X21614143Y-12977500D01*
X21728429Y-13277500D02*
X21742714Y-13263214D01*
X21771286Y-13220357D01*
X21785571Y-13191786D01*
X21799857Y-13148929D01*
X21814143Y-13077500D01*
X21814143Y-13020357D01*
X21799857Y-12948929D01*
X21785571Y-12906071D01*
X21771286Y-12877500D01*
X21742714Y-12834643D01*
X21728429Y-12820357D01*
M02*
