M48
; DRILL file {KiCad 5.99.0+really5.1.10+dfsg1-1} date Sat Oct  9 23:59:45 2021
; FORMAT={-:-/ absolute / metric / decimal}
; #@! TF.CreationDate,2021-10-09T23:59:45+02:00
; #@! TF.GenerationSoftware,Kicad,Pcbnew,5.99.0+really5.1.10+dfsg1-1
; #@! TF.FileFunction,Plated,1,2,PTH
FMAT,2
METRIC
T1C0.400
T2C0.700
T3C0.750
T4C0.900
T5C1.000
T6C1.999
%
G90
G05
T1
X127.0Y-106.68
X132.08Y-100.33
X133.35Y-110.49
X138.43Y-92.71
X138.43Y-96.52
X138.43Y-115.57
X140.97Y-102.87
X140.97Y-114.3
X142.24Y-97.79
X142.24Y-106.68
X144.78Y-114.3
X147.32Y-110.66
X152.4Y-107.95
X156.21Y-90.17
X157.48Y-114.3
X157.48Y-114.3
X157.48Y-115.57
X160.02Y-105.41
X160.02Y-107.95
X160.02Y-113.03
X162.56Y-100.33
X163.83Y-105.41
X163.83Y-111.76
X165.1Y-96.52
X165.1Y-107.95
X166.37Y-85.09
X166.37Y-87.63
X168.91Y-104.14
X170.18Y-99.06
X172.72Y-95.25
X172.72Y-109.22
T2
X124.46Y-85.09
X130.81Y-107.95
X130.81Y-115.57
X132.08Y-85.09
X133.35Y-107.95
X133.35Y-115.57
X135.89Y-115.57
X143.51Y-115.57
X170.18Y-106.68
X170.18Y-114.3
T3
X135.89Y-93.98
X135.89Y-95.25
X135.89Y-96.52
T4
X135.89Y-100.33
X135.89Y-102.87
X143.51Y-100.33
X143.51Y-102.87
T5
X127.0Y-110.53
X127.0Y-113.03
X135.89Y-90.17
X138.43Y-90.17
X142.24Y-90.145
X144.78Y-90.145
X153.67Y-86.44
X153.67Y-91.44
T6
X124.46Y-118.11
X153.67Y-102.87
X175.26Y-85.09
X175.26Y-118.11
T5
G00X125.83Y-88.845
M15
G01X124.33Y-88.845
M16
G05
G00X125.83Y-97.845
M15
G01X124.33Y-97.845
M16
G05
G00X126.08Y-92.695
M15
G01X126.08Y-93.995
M16
G05
G00X132.08Y-92.345
M15
G01X132.08Y-94.345
M16
G05
T0
M30
