%TF.GenerationSoftware,KiCad,Pcbnew,5.99.0+really5.1.10+dfsg1-1*%
%TF.CreationDate,2021-10-09T23:59:48+02:00*%
%TF.ProjectId,tdc,7464632e-6b69-4636-9164-5f7063625858,0.0.0*%
%TF.SameCoordinates,Original*%
%TF.FileFunction,Legend,Top*%
%TF.FilePolarity,Positive*%
%FSLAX46Y46*%
G04 Gerber Fmt 4.6, Leading zero omitted, Abs format (unit mm)*
G04 Created by KiCad (PCBNEW 5.99.0+really5.1.10+dfsg1-1) date 2021-10-09 23:59:48*
%MOMM*%
%LPD*%
G01*
G04 APERTURE LIST*
%ADD10C,0.010000*%
%ADD11C,0.120000*%
%ADD12C,0.150000*%
G04 APERTURE END LIST*
D10*
%TO.C,REF\u002A\u002A*%
G36*
X147459744Y-99709918D02*
G01*
X147515201Y-99737568D01*
X147564148Y-99788480D01*
X147577629Y-99807338D01*
X147592314Y-99832015D01*
X147601842Y-99858816D01*
X147607293Y-99894587D01*
X147609747Y-99946169D01*
X147610286Y-100014267D01*
X147607852Y-100107588D01*
X147599394Y-100177657D01*
X147583174Y-100229931D01*
X147557454Y-100269869D01*
X147520497Y-100302929D01*
X147517782Y-100304886D01*
X147481360Y-100324908D01*
X147437502Y-100334815D01*
X147381724Y-100337257D01*
X147291048Y-100337257D01*
X147291010Y-100425283D01*
X147290166Y-100474308D01*
X147285024Y-100503065D01*
X147271587Y-100520311D01*
X147245858Y-100534808D01*
X147239679Y-100537769D01*
X147210764Y-100551648D01*
X147188376Y-100560414D01*
X147171729Y-100561171D01*
X147160036Y-100551023D01*
X147152510Y-100527073D01*
X147148366Y-100486426D01*
X147146815Y-100426186D01*
X147147071Y-100343455D01*
X147148349Y-100235339D01*
X147148748Y-100203000D01*
X147150185Y-100091524D01*
X147151472Y-100018603D01*
X147290971Y-100018603D01*
X147291755Y-100080499D01*
X147295240Y-100120997D01*
X147303124Y-100147708D01*
X147317105Y-100168244D01*
X147326597Y-100178260D01*
X147365404Y-100207567D01*
X147399763Y-100209952D01*
X147435216Y-100185750D01*
X147436114Y-100184857D01*
X147450539Y-100166153D01*
X147459313Y-100140732D01*
X147463739Y-100101584D01*
X147465118Y-100041697D01*
X147465143Y-100028430D01*
X147461812Y-99945901D01*
X147450969Y-99888691D01*
X147431340Y-99853766D01*
X147401650Y-99838094D01*
X147384491Y-99836514D01*
X147343766Y-99843926D01*
X147315832Y-99868330D01*
X147299017Y-99912980D01*
X147291650Y-99981130D01*
X147290971Y-100018603D01*
X147151472Y-100018603D01*
X147151708Y-100005245D01*
X147153677Y-99940333D01*
X147156450Y-99892958D01*
X147160388Y-99859290D01*
X147165849Y-99835498D01*
X147173192Y-99817753D01*
X147182777Y-99802224D01*
X147186887Y-99796381D01*
X147241405Y-99741185D01*
X147310336Y-99709890D01*
X147390072Y-99701165D01*
X147459744Y-99709918D01*
G37*
X147459744Y-99709918D02*
X147515201Y-99737568D01*
X147564148Y-99788480D01*
X147577629Y-99807338D01*
X147592314Y-99832015D01*
X147601842Y-99858816D01*
X147607293Y-99894587D01*
X147609747Y-99946169D01*
X147610286Y-100014267D01*
X147607852Y-100107588D01*
X147599394Y-100177657D01*
X147583174Y-100229931D01*
X147557454Y-100269869D01*
X147520497Y-100302929D01*
X147517782Y-100304886D01*
X147481360Y-100324908D01*
X147437502Y-100334815D01*
X147381724Y-100337257D01*
X147291048Y-100337257D01*
X147291010Y-100425283D01*
X147290166Y-100474308D01*
X147285024Y-100503065D01*
X147271587Y-100520311D01*
X147245858Y-100534808D01*
X147239679Y-100537769D01*
X147210764Y-100551648D01*
X147188376Y-100560414D01*
X147171729Y-100561171D01*
X147160036Y-100551023D01*
X147152510Y-100527073D01*
X147148366Y-100486426D01*
X147146815Y-100426186D01*
X147147071Y-100343455D01*
X147148349Y-100235339D01*
X147148748Y-100203000D01*
X147150185Y-100091524D01*
X147151472Y-100018603D01*
X147290971Y-100018603D01*
X147291755Y-100080499D01*
X147295240Y-100120997D01*
X147303124Y-100147708D01*
X147317105Y-100168244D01*
X147326597Y-100178260D01*
X147365404Y-100207567D01*
X147399763Y-100209952D01*
X147435216Y-100185750D01*
X147436114Y-100184857D01*
X147450539Y-100166153D01*
X147459313Y-100140732D01*
X147463739Y-100101584D01*
X147465118Y-100041697D01*
X147465143Y-100028430D01*
X147461812Y-99945901D01*
X147450969Y-99888691D01*
X147431340Y-99853766D01*
X147401650Y-99838094D01*
X147384491Y-99836514D01*
X147343766Y-99843926D01*
X147315832Y-99868330D01*
X147299017Y-99912980D01*
X147291650Y-99981130D01*
X147290971Y-100018603D01*
X147151472Y-100018603D01*
X147151708Y-100005245D01*
X147153677Y-99940333D01*
X147156450Y-99892958D01*
X147160388Y-99859290D01*
X147165849Y-99835498D01*
X147173192Y-99817753D01*
X147182777Y-99802224D01*
X147186887Y-99796381D01*
X147241405Y-99741185D01*
X147310336Y-99709890D01*
X147390072Y-99701165D01*
X147459744Y-99709918D01*
G36*
X148576093Y-99717780D02*
G01*
X148622672Y-99744723D01*
X148655057Y-99771466D01*
X148678742Y-99799484D01*
X148695059Y-99833748D01*
X148705339Y-99879227D01*
X148710914Y-99940892D01*
X148713116Y-100023711D01*
X148713371Y-100083246D01*
X148713371Y-100302391D01*
X148651686Y-100330044D01*
X148590000Y-100357697D01*
X148582743Y-100117670D01*
X148579744Y-100028028D01*
X148576598Y-99962962D01*
X148572701Y-99918026D01*
X148567447Y-99888770D01*
X148560231Y-99870748D01*
X148550450Y-99859511D01*
X148547312Y-99857079D01*
X148499761Y-99838083D01*
X148451697Y-99845600D01*
X148423086Y-99865543D01*
X148411447Y-99879675D01*
X148403391Y-99898220D01*
X148398271Y-99926334D01*
X148395441Y-99969173D01*
X148394256Y-100031895D01*
X148394057Y-100097261D01*
X148394018Y-100179268D01*
X148392614Y-100237316D01*
X148387914Y-100276465D01*
X148377987Y-100301780D01*
X148360903Y-100318323D01*
X148334732Y-100331156D01*
X148299775Y-100344491D01*
X148261596Y-100359007D01*
X148266141Y-100101389D01*
X148267971Y-100008519D01*
X148270112Y-99939889D01*
X148273181Y-99890711D01*
X148277794Y-99856198D01*
X148284568Y-99831562D01*
X148294119Y-99812016D01*
X148305634Y-99794770D01*
X148361190Y-99739680D01*
X148428980Y-99707822D01*
X148502713Y-99700191D01*
X148576093Y-99717780D01*
G37*
X148576093Y-99717780D02*
X148622672Y-99744723D01*
X148655057Y-99771466D01*
X148678742Y-99799484D01*
X148695059Y-99833748D01*
X148705339Y-99879227D01*
X148710914Y-99940892D01*
X148713116Y-100023711D01*
X148713371Y-100083246D01*
X148713371Y-100302391D01*
X148651686Y-100330044D01*
X148590000Y-100357697D01*
X148582743Y-100117670D01*
X148579744Y-100028028D01*
X148576598Y-99962962D01*
X148572701Y-99918026D01*
X148567447Y-99888770D01*
X148560231Y-99870748D01*
X148550450Y-99859511D01*
X148547312Y-99857079D01*
X148499761Y-99838083D01*
X148451697Y-99845600D01*
X148423086Y-99865543D01*
X148411447Y-99879675D01*
X148403391Y-99898220D01*
X148398271Y-99926334D01*
X148395441Y-99969173D01*
X148394256Y-100031895D01*
X148394057Y-100097261D01*
X148394018Y-100179268D01*
X148392614Y-100237316D01*
X148387914Y-100276465D01*
X148377987Y-100301780D01*
X148360903Y-100318323D01*
X148334732Y-100331156D01*
X148299775Y-100344491D01*
X148261596Y-100359007D01*
X148266141Y-100101389D01*
X148267971Y-100008519D01*
X148270112Y-99939889D01*
X148273181Y-99890711D01*
X148277794Y-99856198D01*
X148284568Y-99831562D01*
X148294119Y-99812016D01*
X148305634Y-99794770D01*
X148361190Y-99739680D01*
X148428980Y-99707822D01*
X148502713Y-99700191D01*
X148576093Y-99717780D01*
G36*
X146901115Y-99711962D02*
G01*
X146969145Y-99747733D01*
X147019351Y-99805301D01*
X147037185Y-99842312D01*
X147051063Y-99897882D01*
X147058167Y-99968096D01*
X147058840Y-100044727D01*
X147053427Y-100119552D01*
X147042270Y-100184342D01*
X147025714Y-100230873D01*
X147020626Y-100238887D01*
X146960355Y-100298707D01*
X146888769Y-100334535D01*
X146811092Y-100345020D01*
X146732548Y-100328810D01*
X146710689Y-100319092D01*
X146668122Y-100289143D01*
X146630763Y-100249433D01*
X146627232Y-100244397D01*
X146612881Y-100220124D01*
X146603394Y-100194178D01*
X146597790Y-100160022D01*
X146595086Y-100111119D01*
X146594299Y-100040935D01*
X146594286Y-100025200D01*
X146594322Y-100020192D01*
X146739429Y-100020192D01*
X146740273Y-100086430D01*
X146743596Y-100130386D01*
X146750583Y-100158779D01*
X146762416Y-100178325D01*
X146768457Y-100184857D01*
X146803186Y-100209680D01*
X146836903Y-100208548D01*
X146870995Y-100187016D01*
X146891329Y-100164029D01*
X146903371Y-100130478D01*
X146910134Y-100077569D01*
X146910598Y-100071399D01*
X146911752Y-99975513D01*
X146899688Y-99904299D01*
X146874570Y-99858194D01*
X146836560Y-99837635D01*
X146822992Y-99836514D01*
X146787364Y-99842152D01*
X146762994Y-99861686D01*
X146748093Y-99899042D01*
X146740875Y-99958150D01*
X146739429Y-100020192D01*
X146594322Y-100020192D01*
X146594826Y-99950413D01*
X146597096Y-99898159D01*
X146602068Y-99861949D01*
X146610713Y-99835299D01*
X146624005Y-99811722D01*
X146626943Y-99807338D01*
X146676313Y-99748249D01*
X146730109Y-99713947D01*
X146795602Y-99700331D01*
X146817842Y-99699665D01*
X146901115Y-99711962D01*
G37*
X146901115Y-99711962D02*
X146969145Y-99747733D01*
X147019351Y-99805301D01*
X147037185Y-99842312D01*
X147051063Y-99897882D01*
X147058167Y-99968096D01*
X147058840Y-100044727D01*
X147053427Y-100119552D01*
X147042270Y-100184342D01*
X147025714Y-100230873D01*
X147020626Y-100238887D01*
X146960355Y-100298707D01*
X146888769Y-100334535D01*
X146811092Y-100345020D01*
X146732548Y-100328810D01*
X146710689Y-100319092D01*
X146668122Y-100289143D01*
X146630763Y-100249433D01*
X146627232Y-100244397D01*
X146612881Y-100220124D01*
X146603394Y-100194178D01*
X146597790Y-100160022D01*
X146595086Y-100111119D01*
X146594299Y-100040935D01*
X146594286Y-100025200D01*
X146594322Y-100020192D01*
X146739429Y-100020192D01*
X146740273Y-100086430D01*
X146743596Y-100130386D01*
X146750583Y-100158779D01*
X146762416Y-100178325D01*
X146768457Y-100184857D01*
X146803186Y-100209680D01*
X146836903Y-100208548D01*
X146870995Y-100187016D01*
X146891329Y-100164029D01*
X146903371Y-100130478D01*
X146910134Y-100077569D01*
X146910598Y-100071399D01*
X146911752Y-99975513D01*
X146899688Y-99904299D01*
X146874570Y-99858194D01*
X146836560Y-99837635D01*
X146822992Y-99836514D01*
X146787364Y-99842152D01*
X146762994Y-99861686D01*
X146748093Y-99899042D01*
X146740875Y-99958150D01*
X146739429Y-100020192D01*
X146594322Y-100020192D01*
X146594826Y-99950413D01*
X146597096Y-99898159D01*
X146602068Y-99861949D01*
X146610713Y-99835299D01*
X146624005Y-99811722D01*
X146626943Y-99807338D01*
X146676313Y-99748249D01*
X146730109Y-99713947D01*
X146795602Y-99700331D01*
X146817842Y-99699665D01*
X146901115Y-99711962D01*
G36*
X148028303Y-99721239D02*
G01*
X148085527Y-99759735D01*
X148129749Y-99815335D01*
X148156167Y-99886086D01*
X148161510Y-99938162D01*
X148160903Y-99959893D01*
X148155822Y-99976531D01*
X148141855Y-99991437D01*
X148114589Y-100007973D01*
X148069612Y-100029498D01*
X148002511Y-100059374D01*
X148002171Y-100059524D01*
X147940407Y-100087813D01*
X147889759Y-100112933D01*
X147855404Y-100132179D01*
X147842518Y-100142848D01*
X147842514Y-100142934D01*
X147853872Y-100166166D01*
X147880431Y-100191774D01*
X147910923Y-100210221D01*
X147926370Y-100213886D01*
X147968515Y-100201212D01*
X148004808Y-100169471D01*
X148022517Y-100134572D01*
X148039552Y-100108845D01*
X148072922Y-100079546D01*
X148112149Y-100054235D01*
X148146756Y-100040471D01*
X148153993Y-100039714D01*
X148162139Y-100052160D01*
X148162630Y-100083972D01*
X148156643Y-100126866D01*
X148145357Y-100172558D01*
X148129950Y-100212761D01*
X148129171Y-100214322D01*
X148082804Y-100279062D01*
X148022711Y-100323097D01*
X147954465Y-100344711D01*
X147883638Y-100342185D01*
X147815804Y-100313804D01*
X147812788Y-100311808D01*
X147759427Y-100263448D01*
X147724340Y-100200352D01*
X147704922Y-100117387D01*
X147702316Y-100094078D01*
X147697701Y-99984055D01*
X147703233Y-99932748D01*
X147842514Y-99932748D01*
X147844324Y-99964753D01*
X147854222Y-99974093D01*
X147878898Y-99967105D01*
X147917795Y-99950587D01*
X147961275Y-99929881D01*
X147962356Y-99929333D01*
X147999209Y-99909949D01*
X148014000Y-99897013D01*
X148010353Y-99883451D01*
X147994995Y-99865632D01*
X147955923Y-99839845D01*
X147913846Y-99837950D01*
X147876103Y-99856717D01*
X147850034Y-99892915D01*
X147842514Y-99932748D01*
X147703233Y-99932748D01*
X147707194Y-99896027D01*
X147731550Y-99826212D01*
X147765456Y-99777302D01*
X147826653Y-99727878D01*
X147894063Y-99703359D01*
X147962880Y-99701797D01*
X148028303Y-99721239D01*
G37*
X148028303Y-99721239D02*
X148085527Y-99759735D01*
X148129749Y-99815335D01*
X148156167Y-99886086D01*
X148161510Y-99938162D01*
X148160903Y-99959893D01*
X148155822Y-99976531D01*
X148141855Y-99991437D01*
X148114589Y-100007973D01*
X148069612Y-100029498D01*
X148002511Y-100059374D01*
X148002171Y-100059524D01*
X147940407Y-100087813D01*
X147889759Y-100112933D01*
X147855404Y-100132179D01*
X147842518Y-100142848D01*
X147842514Y-100142934D01*
X147853872Y-100166166D01*
X147880431Y-100191774D01*
X147910923Y-100210221D01*
X147926370Y-100213886D01*
X147968515Y-100201212D01*
X148004808Y-100169471D01*
X148022517Y-100134572D01*
X148039552Y-100108845D01*
X148072922Y-100079546D01*
X148112149Y-100054235D01*
X148146756Y-100040471D01*
X148153993Y-100039714D01*
X148162139Y-100052160D01*
X148162630Y-100083972D01*
X148156643Y-100126866D01*
X148145357Y-100172558D01*
X148129950Y-100212761D01*
X148129171Y-100214322D01*
X148082804Y-100279062D01*
X148022711Y-100323097D01*
X147954465Y-100344711D01*
X147883638Y-100342185D01*
X147815804Y-100313804D01*
X147812788Y-100311808D01*
X147759427Y-100263448D01*
X147724340Y-100200352D01*
X147704922Y-100117387D01*
X147702316Y-100094078D01*
X147697701Y-99984055D01*
X147703233Y-99932748D01*
X147842514Y-99932748D01*
X147844324Y-99964753D01*
X147854222Y-99974093D01*
X147878898Y-99967105D01*
X147917795Y-99950587D01*
X147961275Y-99929881D01*
X147962356Y-99929333D01*
X147999209Y-99909949D01*
X148014000Y-99897013D01*
X148010353Y-99883451D01*
X147994995Y-99865632D01*
X147955923Y-99839845D01*
X147913846Y-99837950D01*
X147876103Y-99856717D01*
X147850034Y-99892915D01*
X147842514Y-99932748D01*
X147703233Y-99932748D01*
X147707194Y-99896027D01*
X147731550Y-99826212D01*
X147765456Y-99777302D01*
X147826653Y-99727878D01*
X147894063Y-99703359D01*
X147962880Y-99701797D01*
X148028303Y-99721239D01*
G36*
X149235886Y-99641289D02*
G01*
X149240139Y-99700613D01*
X149245025Y-99735572D01*
X149251795Y-99750820D01*
X149261702Y-99751015D01*
X149264914Y-99749195D01*
X149307644Y-99736015D01*
X149363227Y-99736785D01*
X149419737Y-99750333D01*
X149455082Y-99767861D01*
X149491321Y-99795861D01*
X149517813Y-99827549D01*
X149535999Y-99867813D01*
X149547322Y-99921543D01*
X149553222Y-99993626D01*
X149555143Y-100088951D01*
X149555177Y-100107237D01*
X149555200Y-100312646D01*
X149509491Y-100328580D01*
X149477027Y-100339420D01*
X149459215Y-100344468D01*
X149458691Y-100344514D01*
X149456937Y-100330828D01*
X149455444Y-100293076D01*
X149454326Y-100236224D01*
X149453697Y-100165234D01*
X149453600Y-100122073D01*
X149453398Y-100036973D01*
X149452358Y-99975981D01*
X149449831Y-99934177D01*
X149445164Y-99906642D01*
X149437707Y-99888456D01*
X149426811Y-99874698D01*
X149420007Y-99868073D01*
X149373272Y-99841375D01*
X149322272Y-99839375D01*
X149276001Y-99861955D01*
X149267444Y-99870107D01*
X149254893Y-99885436D01*
X149246188Y-99903618D01*
X149240631Y-99929909D01*
X149237526Y-99969562D01*
X149236176Y-100027832D01*
X149235886Y-100108173D01*
X149235886Y-100312646D01*
X149190177Y-100328580D01*
X149157713Y-100339420D01*
X149139901Y-100344468D01*
X149139377Y-100344514D01*
X149138037Y-100330623D01*
X149136828Y-100291439D01*
X149135801Y-100230700D01*
X149135002Y-100152141D01*
X149134481Y-100059498D01*
X149134286Y-99956509D01*
X149134286Y-99559342D01*
X149181457Y-99539444D01*
X149228629Y-99519547D01*
X149235886Y-99641289D01*
G37*
X149235886Y-99641289D02*
X149240139Y-99700613D01*
X149245025Y-99735572D01*
X149251795Y-99750820D01*
X149261702Y-99751015D01*
X149264914Y-99749195D01*
X149307644Y-99736015D01*
X149363227Y-99736785D01*
X149419737Y-99750333D01*
X149455082Y-99767861D01*
X149491321Y-99795861D01*
X149517813Y-99827549D01*
X149535999Y-99867813D01*
X149547322Y-99921543D01*
X149553222Y-99993626D01*
X149555143Y-100088951D01*
X149555177Y-100107237D01*
X149555200Y-100312646D01*
X149509491Y-100328580D01*
X149477027Y-100339420D01*
X149459215Y-100344468D01*
X149458691Y-100344514D01*
X149456937Y-100330828D01*
X149455444Y-100293076D01*
X149454326Y-100236224D01*
X149453697Y-100165234D01*
X149453600Y-100122073D01*
X149453398Y-100036973D01*
X149452358Y-99975981D01*
X149449831Y-99934177D01*
X149445164Y-99906642D01*
X149437707Y-99888456D01*
X149426811Y-99874698D01*
X149420007Y-99868073D01*
X149373272Y-99841375D01*
X149322272Y-99839375D01*
X149276001Y-99861955D01*
X149267444Y-99870107D01*
X149254893Y-99885436D01*
X149246188Y-99903618D01*
X149240631Y-99929909D01*
X149237526Y-99969562D01*
X149236176Y-100027832D01*
X149235886Y-100108173D01*
X149235886Y-100312646D01*
X149190177Y-100328580D01*
X149157713Y-100339420D01*
X149139901Y-100344468D01*
X149139377Y-100344514D01*
X149138037Y-100330623D01*
X149136828Y-100291439D01*
X149135801Y-100230700D01*
X149135002Y-100152141D01*
X149134481Y-100059498D01*
X149134286Y-99956509D01*
X149134286Y-99559342D01*
X149181457Y-99539444D01*
X149228629Y-99519547D01*
X149235886Y-99641289D01*
G36*
X149899744Y-99740968D02*
G01*
X149956616Y-99762087D01*
X149957267Y-99762493D01*
X149992440Y-99788380D01*
X150018407Y-99818633D01*
X150036670Y-99858058D01*
X150048732Y-99911462D01*
X150056096Y-99983651D01*
X150060264Y-100079432D01*
X150060629Y-100093078D01*
X150065876Y-100298842D01*
X150021716Y-100321678D01*
X149989763Y-100337110D01*
X149970470Y-100344423D01*
X149969578Y-100344514D01*
X149966239Y-100331022D01*
X149963587Y-100294626D01*
X149961956Y-100241452D01*
X149961600Y-100198393D01*
X149961592Y-100128641D01*
X149958403Y-100084837D01*
X149947288Y-100063944D01*
X149923501Y-100062925D01*
X149882296Y-100078741D01*
X149820086Y-100107815D01*
X149774341Y-100131963D01*
X149750813Y-100152913D01*
X149743896Y-100175747D01*
X149743886Y-100176877D01*
X149755299Y-100216212D01*
X149789092Y-100237462D01*
X149840809Y-100240539D01*
X149878061Y-100240006D01*
X149897703Y-100250735D01*
X149909952Y-100276505D01*
X149917002Y-100309337D01*
X149906842Y-100327966D01*
X149903017Y-100330632D01*
X149867001Y-100341340D01*
X149816566Y-100342856D01*
X149764626Y-100335759D01*
X149727822Y-100322788D01*
X149676938Y-100279585D01*
X149648014Y-100219446D01*
X149642286Y-100172462D01*
X149646657Y-100130082D01*
X149662475Y-100095488D01*
X149693797Y-100064763D01*
X149744678Y-100033990D01*
X149819176Y-99999252D01*
X149823714Y-99997288D01*
X149890821Y-99966287D01*
X149932232Y-99940862D01*
X149949981Y-99918014D01*
X149946107Y-99894745D01*
X149922643Y-99868056D01*
X149915627Y-99861914D01*
X149868630Y-99838100D01*
X149819933Y-99839103D01*
X149777522Y-99862451D01*
X149749384Y-99905675D01*
X149746769Y-99914160D01*
X149721308Y-99955308D01*
X149689001Y-99975128D01*
X149642286Y-99994770D01*
X149642286Y-99943950D01*
X149656496Y-99870082D01*
X149698675Y-99802327D01*
X149720624Y-99779661D01*
X149770517Y-99750569D01*
X149833967Y-99737400D01*
X149899744Y-99740968D01*
G37*
X149899744Y-99740968D02*
X149956616Y-99762087D01*
X149957267Y-99762493D01*
X149992440Y-99788380D01*
X150018407Y-99818633D01*
X150036670Y-99858058D01*
X150048732Y-99911462D01*
X150056096Y-99983651D01*
X150060264Y-100079432D01*
X150060629Y-100093078D01*
X150065876Y-100298842D01*
X150021716Y-100321678D01*
X149989763Y-100337110D01*
X149970470Y-100344423D01*
X149969578Y-100344514D01*
X149966239Y-100331022D01*
X149963587Y-100294626D01*
X149961956Y-100241452D01*
X149961600Y-100198393D01*
X149961592Y-100128641D01*
X149958403Y-100084837D01*
X149947288Y-100063944D01*
X149923501Y-100062925D01*
X149882296Y-100078741D01*
X149820086Y-100107815D01*
X149774341Y-100131963D01*
X149750813Y-100152913D01*
X149743896Y-100175747D01*
X149743886Y-100176877D01*
X149755299Y-100216212D01*
X149789092Y-100237462D01*
X149840809Y-100240539D01*
X149878061Y-100240006D01*
X149897703Y-100250735D01*
X149909952Y-100276505D01*
X149917002Y-100309337D01*
X149906842Y-100327966D01*
X149903017Y-100330632D01*
X149867001Y-100341340D01*
X149816566Y-100342856D01*
X149764626Y-100335759D01*
X149727822Y-100322788D01*
X149676938Y-100279585D01*
X149648014Y-100219446D01*
X149642286Y-100172462D01*
X149646657Y-100130082D01*
X149662475Y-100095488D01*
X149693797Y-100064763D01*
X149744678Y-100033990D01*
X149819176Y-99999252D01*
X149823714Y-99997288D01*
X149890821Y-99966287D01*
X149932232Y-99940862D01*
X149949981Y-99918014D01*
X149946107Y-99894745D01*
X149922643Y-99868056D01*
X149915627Y-99861914D01*
X149868630Y-99838100D01*
X149819933Y-99839103D01*
X149777522Y-99862451D01*
X149749384Y-99905675D01*
X149746769Y-99914160D01*
X149721308Y-99955308D01*
X149689001Y-99975128D01*
X149642286Y-99994770D01*
X149642286Y-99943950D01*
X149656496Y-99870082D01*
X149698675Y-99802327D01*
X149720624Y-99779661D01*
X149770517Y-99750569D01*
X149833967Y-99737400D01*
X149899744Y-99740968D01*
G36*
X150389926Y-99739755D02*
G01*
X150455858Y-99764084D01*
X150509273Y-99807117D01*
X150530164Y-99837409D01*
X150552939Y-99892994D01*
X150552466Y-99933186D01*
X150528562Y-99960217D01*
X150519717Y-99964813D01*
X150481530Y-99979144D01*
X150462028Y-99975472D01*
X150455422Y-99951407D01*
X150455086Y-99938114D01*
X150442992Y-99889210D01*
X150411471Y-99854999D01*
X150367659Y-99838476D01*
X150318695Y-99842634D01*
X150278894Y-99864227D01*
X150265450Y-99876544D01*
X150255921Y-99891487D01*
X150249485Y-99914075D01*
X150245317Y-99949328D01*
X150242597Y-100002266D01*
X150240502Y-100077907D01*
X150239960Y-100101857D01*
X150237981Y-100183790D01*
X150235731Y-100241455D01*
X150232357Y-100279608D01*
X150227006Y-100303004D01*
X150218824Y-100316398D01*
X150206959Y-100324545D01*
X150199362Y-100328144D01*
X150167102Y-100340452D01*
X150148111Y-100344514D01*
X150141836Y-100330948D01*
X150138006Y-100289934D01*
X150136600Y-100220999D01*
X150137598Y-100123669D01*
X150137908Y-100108657D01*
X150140101Y-100019859D01*
X150142693Y-99955019D01*
X150146382Y-99909067D01*
X150151864Y-99876935D01*
X150159835Y-99853553D01*
X150170993Y-99833852D01*
X150176830Y-99825410D01*
X150210296Y-99788057D01*
X150247727Y-99759003D01*
X150252309Y-99756467D01*
X150319426Y-99736443D01*
X150389926Y-99739755D01*
G37*
X150389926Y-99739755D02*
X150455858Y-99764084D01*
X150509273Y-99807117D01*
X150530164Y-99837409D01*
X150552939Y-99892994D01*
X150552466Y-99933186D01*
X150528562Y-99960217D01*
X150519717Y-99964813D01*
X150481530Y-99979144D01*
X150462028Y-99975472D01*
X150455422Y-99951407D01*
X150455086Y-99938114D01*
X150442992Y-99889210D01*
X150411471Y-99854999D01*
X150367659Y-99838476D01*
X150318695Y-99842634D01*
X150278894Y-99864227D01*
X150265450Y-99876544D01*
X150255921Y-99891487D01*
X150249485Y-99914075D01*
X150245317Y-99949328D01*
X150242597Y-100002266D01*
X150240502Y-100077907D01*
X150239960Y-100101857D01*
X150237981Y-100183790D01*
X150235731Y-100241455D01*
X150232357Y-100279608D01*
X150227006Y-100303004D01*
X150218824Y-100316398D01*
X150206959Y-100324545D01*
X150199362Y-100328144D01*
X150167102Y-100340452D01*
X150148111Y-100344514D01*
X150141836Y-100330948D01*
X150138006Y-100289934D01*
X150136600Y-100220999D01*
X150137598Y-100123669D01*
X150137908Y-100108657D01*
X150140101Y-100019859D01*
X150142693Y-99955019D01*
X150146382Y-99909067D01*
X150151864Y-99876935D01*
X150159835Y-99853553D01*
X150170993Y-99833852D01*
X150176830Y-99825410D01*
X150210296Y-99788057D01*
X150247727Y-99759003D01*
X150252309Y-99756467D01*
X150319426Y-99736443D01*
X150389926Y-99739755D01*
G36*
X151050117Y-99855358D02*
G01*
X151049933Y-99963837D01*
X151049219Y-100047287D01*
X151047675Y-100109704D01*
X151045001Y-100155085D01*
X151040894Y-100187429D01*
X151035055Y-100210733D01*
X151027182Y-100228995D01*
X151021221Y-100239418D01*
X150971855Y-100295945D01*
X150909264Y-100331377D01*
X150840013Y-100344090D01*
X150770668Y-100332463D01*
X150729375Y-100311568D01*
X150686025Y-100275422D01*
X150656481Y-100231276D01*
X150638655Y-100173462D01*
X150630463Y-100096313D01*
X150629302Y-100039714D01*
X150629458Y-100035647D01*
X150730857Y-100035647D01*
X150731476Y-100100550D01*
X150734314Y-100143514D01*
X150740840Y-100171622D01*
X150752523Y-100191953D01*
X150766483Y-100207288D01*
X150813365Y-100236890D01*
X150863701Y-100239419D01*
X150911276Y-100214705D01*
X150914979Y-100211356D01*
X150930783Y-100193935D01*
X150940693Y-100173209D01*
X150946058Y-100142362D01*
X150948228Y-100094577D01*
X150948571Y-100041748D01*
X150947827Y-99975381D01*
X150944748Y-99931106D01*
X150938061Y-99902009D01*
X150926496Y-99881173D01*
X150917013Y-99870107D01*
X150872960Y-99842198D01*
X150822224Y-99838843D01*
X150773796Y-99860159D01*
X150764450Y-99868073D01*
X150748540Y-99885647D01*
X150738610Y-99906587D01*
X150733278Y-99937782D01*
X150731163Y-99986122D01*
X150730857Y-100035647D01*
X150629458Y-100035647D01*
X150632810Y-99948568D01*
X150644726Y-99880086D01*
X150667135Y-99828600D01*
X150702124Y-99788443D01*
X150729375Y-99767861D01*
X150778907Y-99745625D01*
X150836316Y-99735304D01*
X150889682Y-99738067D01*
X150919543Y-99749212D01*
X150931261Y-99752383D01*
X150939037Y-99740557D01*
X150944465Y-99708866D01*
X150948571Y-99660593D01*
X150953067Y-99606829D01*
X150959313Y-99574482D01*
X150970676Y-99555985D01*
X150990528Y-99543770D01*
X151003000Y-99538362D01*
X151050171Y-99518601D01*
X151050117Y-99855358D01*
G37*
X151050117Y-99855358D02*
X151049933Y-99963837D01*
X151049219Y-100047287D01*
X151047675Y-100109704D01*
X151045001Y-100155085D01*
X151040894Y-100187429D01*
X151035055Y-100210733D01*
X151027182Y-100228995D01*
X151021221Y-100239418D01*
X150971855Y-100295945D01*
X150909264Y-100331377D01*
X150840013Y-100344090D01*
X150770668Y-100332463D01*
X150729375Y-100311568D01*
X150686025Y-100275422D01*
X150656481Y-100231276D01*
X150638655Y-100173462D01*
X150630463Y-100096313D01*
X150629302Y-100039714D01*
X150629458Y-100035647D01*
X150730857Y-100035647D01*
X150731476Y-100100550D01*
X150734314Y-100143514D01*
X150740840Y-100171622D01*
X150752523Y-100191953D01*
X150766483Y-100207288D01*
X150813365Y-100236890D01*
X150863701Y-100239419D01*
X150911276Y-100214705D01*
X150914979Y-100211356D01*
X150930783Y-100193935D01*
X150940693Y-100173209D01*
X150946058Y-100142362D01*
X150948228Y-100094577D01*
X150948571Y-100041748D01*
X150947827Y-99975381D01*
X150944748Y-99931106D01*
X150938061Y-99902009D01*
X150926496Y-99881173D01*
X150917013Y-99870107D01*
X150872960Y-99842198D01*
X150822224Y-99838843D01*
X150773796Y-99860159D01*
X150764450Y-99868073D01*
X150748540Y-99885647D01*
X150738610Y-99906587D01*
X150733278Y-99937782D01*
X150731163Y-99986122D01*
X150730857Y-100035647D01*
X150629458Y-100035647D01*
X150632810Y-99948568D01*
X150644726Y-99880086D01*
X150667135Y-99828600D01*
X150702124Y-99788443D01*
X150729375Y-99767861D01*
X150778907Y-99745625D01*
X150836316Y-99735304D01*
X150889682Y-99738067D01*
X150919543Y-99749212D01*
X150931261Y-99752383D01*
X150939037Y-99740557D01*
X150944465Y-99708866D01*
X150948571Y-99660593D01*
X150953067Y-99606829D01*
X150959313Y-99574482D01*
X150970676Y-99555985D01*
X150990528Y-99543770D01*
X151003000Y-99538362D01*
X151050171Y-99518601D01*
X151050117Y-99855358D01*
G36*
X151639833Y-99748663D02*
G01*
X151642048Y-99786850D01*
X151643784Y-99844886D01*
X151644899Y-99918180D01*
X151645257Y-99995055D01*
X151645257Y-100255196D01*
X151599326Y-100301127D01*
X151567675Y-100329429D01*
X151539890Y-100340893D01*
X151501915Y-100340168D01*
X151486840Y-100338321D01*
X151439726Y-100332948D01*
X151400756Y-100329869D01*
X151391257Y-100329585D01*
X151359233Y-100331445D01*
X151313432Y-100336114D01*
X151295674Y-100338321D01*
X151252057Y-100341735D01*
X151222745Y-100334320D01*
X151193680Y-100311427D01*
X151183188Y-100301127D01*
X151137257Y-100255196D01*
X151137257Y-99768602D01*
X151174226Y-99751758D01*
X151206059Y-99739282D01*
X151224683Y-99734914D01*
X151229458Y-99748718D01*
X151233921Y-99787286D01*
X151237775Y-99846356D01*
X151240722Y-99921663D01*
X151242143Y-99985286D01*
X151246114Y-100235657D01*
X151280759Y-100240556D01*
X151312268Y-100237131D01*
X151327708Y-100226041D01*
X151332023Y-100205308D01*
X151335708Y-100161145D01*
X151338469Y-100099146D01*
X151340012Y-100024909D01*
X151340235Y-99986706D01*
X151340457Y-99766783D01*
X151386166Y-99750849D01*
X151418518Y-99740015D01*
X151436115Y-99734962D01*
X151436623Y-99734914D01*
X151438388Y-99748648D01*
X151440329Y-99786730D01*
X151442282Y-99844482D01*
X151444084Y-99917227D01*
X151445343Y-99985286D01*
X151449314Y-100235657D01*
X151536400Y-100235657D01*
X151540396Y-100007240D01*
X151544392Y-99778822D01*
X151586847Y-99756868D01*
X151618192Y-99741793D01*
X151636744Y-99734951D01*
X151637279Y-99734914D01*
X151639833Y-99748663D01*
G37*
X151639833Y-99748663D02*
X151642048Y-99786850D01*
X151643784Y-99844886D01*
X151644899Y-99918180D01*
X151645257Y-99995055D01*
X151645257Y-100255196D01*
X151599326Y-100301127D01*
X151567675Y-100329429D01*
X151539890Y-100340893D01*
X151501915Y-100340168D01*
X151486840Y-100338321D01*
X151439726Y-100332948D01*
X151400756Y-100329869D01*
X151391257Y-100329585D01*
X151359233Y-100331445D01*
X151313432Y-100336114D01*
X151295674Y-100338321D01*
X151252057Y-100341735D01*
X151222745Y-100334320D01*
X151193680Y-100311427D01*
X151183188Y-100301127D01*
X151137257Y-100255196D01*
X151137257Y-99768602D01*
X151174226Y-99751758D01*
X151206059Y-99739282D01*
X151224683Y-99734914D01*
X151229458Y-99748718D01*
X151233921Y-99787286D01*
X151237775Y-99846356D01*
X151240722Y-99921663D01*
X151242143Y-99985286D01*
X151246114Y-100235657D01*
X151280759Y-100240556D01*
X151312268Y-100237131D01*
X151327708Y-100226041D01*
X151332023Y-100205308D01*
X151335708Y-100161145D01*
X151338469Y-100099146D01*
X151340012Y-100024909D01*
X151340235Y-99986706D01*
X151340457Y-99766783D01*
X151386166Y-99750849D01*
X151418518Y-99740015D01*
X151436115Y-99734962D01*
X151436623Y-99734914D01*
X151438388Y-99748648D01*
X151440329Y-99786730D01*
X151442282Y-99844482D01*
X151444084Y-99917227D01*
X151445343Y-99985286D01*
X151449314Y-100235657D01*
X151536400Y-100235657D01*
X151540396Y-100007240D01*
X151544392Y-99778822D01*
X151586847Y-99756868D01*
X151618192Y-99741793D01*
X151636744Y-99734951D01*
X151637279Y-99734914D01*
X151639833Y-99748663D01*
G36*
X152004876Y-99746335D02*
G01*
X152046667Y-99765344D01*
X152079469Y-99788378D01*
X152103503Y-99814133D01*
X152120097Y-99847358D01*
X152130577Y-99892800D01*
X152136271Y-99955207D01*
X152138507Y-100039327D01*
X152138743Y-100094721D01*
X152138743Y-100310826D01*
X152101774Y-100327670D01*
X152072656Y-100339981D01*
X152058231Y-100344514D01*
X152055472Y-100331025D01*
X152053282Y-100294653D01*
X152051942Y-100241542D01*
X152051657Y-100199372D01*
X152050434Y-100138447D01*
X152047136Y-100090115D01*
X152042321Y-100060518D01*
X152038496Y-100054229D01*
X152012783Y-100060652D01*
X151972418Y-100077125D01*
X151925679Y-100099458D01*
X151880845Y-100123457D01*
X151846193Y-100144930D01*
X151830002Y-100159685D01*
X151829938Y-100159845D01*
X151831330Y-100187152D01*
X151843818Y-100213219D01*
X151865743Y-100234392D01*
X151897743Y-100241474D01*
X151925092Y-100240649D01*
X151963826Y-100240042D01*
X151984158Y-100249116D01*
X151996369Y-100273092D01*
X151997909Y-100277613D01*
X152003203Y-100311806D01*
X151989047Y-100332568D01*
X151952148Y-100342462D01*
X151912289Y-100344292D01*
X151840562Y-100330727D01*
X151803432Y-100311355D01*
X151757576Y-100265845D01*
X151733256Y-100209983D01*
X151731073Y-100150957D01*
X151751629Y-100095953D01*
X151782549Y-100061486D01*
X151813420Y-100042189D01*
X151861942Y-100017759D01*
X151918485Y-99992985D01*
X151927910Y-99989199D01*
X151990019Y-99961791D01*
X152025822Y-99937634D01*
X152037337Y-99913619D01*
X152026580Y-99886635D01*
X152008114Y-99865543D01*
X151964469Y-99839572D01*
X151916446Y-99837624D01*
X151872406Y-99857637D01*
X151840709Y-99897551D01*
X151836549Y-99907848D01*
X151812327Y-99945724D01*
X151776965Y-99973842D01*
X151732343Y-99996917D01*
X151732343Y-99931485D01*
X151734969Y-99891506D01*
X151746230Y-99859997D01*
X151771199Y-99826378D01*
X151795169Y-99800484D01*
X151832441Y-99763817D01*
X151861401Y-99744121D01*
X151892505Y-99736220D01*
X151927713Y-99734914D01*
X152004876Y-99746335D01*
G37*
X152004876Y-99746335D02*
X152046667Y-99765344D01*
X152079469Y-99788378D01*
X152103503Y-99814133D01*
X152120097Y-99847358D01*
X152130577Y-99892800D01*
X152136271Y-99955207D01*
X152138507Y-100039327D01*
X152138743Y-100094721D01*
X152138743Y-100310826D01*
X152101774Y-100327670D01*
X152072656Y-100339981D01*
X152058231Y-100344514D01*
X152055472Y-100331025D01*
X152053282Y-100294653D01*
X152051942Y-100241542D01*
X152051657Y-100199372D01*
X152050434Y-100138447D01*
X152047136Y-100090115D01*
X152042321Y-100060518D01*
X152038496Y-100054229D01*
X152012783Y-100060652D01*
X151972418Y-100077125D01*
X151925679Y-100099458D01*
X151880845Y-100123457D01*
X151846193Y-100144930D01*
X151830002Y-100159685D01*
X151829938Y-100159845D01*
X151831330Y-100187152D01*
X151843818Y-100213219D01*
X151865743Y-100234392D01*
X151897743Y-100241474D01*
X151925092Y-100240649D01*
X151963826Y-100240042D01*
X151984158Y-100249116D01*
X151996369Y-100273092D01*
X151997909Y-100277613D01*
X152003203Y-100311806D01*
X151989047Y-100332568D01*
X151952148Y-100342462D01*
X151912289Y-100344292D01*
X151840562Y-100330727D01*
X151803432Y-100311355D01*
X151757576Y-100265845D01*
X151733256Y-100209983D01*
X151731073Y-100150957D01*
X151751629Y-100095953D01*
X151782549Y-100061486D01*
X151813420Y-100042189D01*
X151861942Y-100017759D01*
X151918485Y-99992985D01*
X151927910Y-99989199D01*
X151990019Y-99961791D01*
X152025822Y-99937634D01*
X152037337Y-99913619D01*
X152026580Y-99886635D01*
X152008114Y-99865543D01*
X151964469Y-99839572D01*
X151916446Y-99837624D01*
X151872406Y-99857637D01*
X151840709Y-99897551D01*
X151836549Y-99907848D01*
X151812327Y-99945724D01*
X151776965Y-99973842D01*
X151732343Y-99996917D01*
X151732343Y-99931485D01*
X151734969Y-99891506D01*
X151746230Y-99859997D01*
X151771199Y-99826378D01*
X151795169Y-99800484D01*
X151832441Y-99763817D01*
X151861401Y-99744121D01*
X151892505Y-99736220D01*
X151927713Y-99734914D01*
X152004876Y-99746335D01*
G36*
X152512600Y-99748752D02*
G01*
X152529948Y-99756334D01*
X152571356Y-99789128D01*
X152606765Y-99836547D01*
X152628664Y-99887151D01*
X152632229Y-99912098D01*
X152620279Y-99946927D01*
X152594067Y-99965357D01*
X152565964Y-99976516D01*
X152553095Y-99978572D01*
X152546829Y-99963649D01*
X152534456Y-99931175D01*
X152529028Y-99916502D01*
X152498590Y-99865744D01*
X152454520Y-99840427D01*
X152398010Y-99841206D01*
X152393825Y-99842203D01*
X152363655Y-99856507D01*
X152341476Y-99884393D01*
X152326327Y-99929287D01*
X152317250Y-99994615D01*
X152313286Y-100083804D01*
X152312914Y-100131261D01*
X152312730Y-100206071D01*
X152311522Y-100257069D01*
X152308309Y-100289471D01*
X152302109Y-100308495D01*
X152291940Y-100319356D01*
X152276819Y-100327272D01*
X152275946Y-100327670D01*
X152246828Y-100339981D01*
X152232403Y-100344514D01*
X152230186Y-100330809D01*
X152228289Y-100292925D01*
X152226847Y-100235715D01*
X152225998Y-100164027D01*
X152225829Y-100111565D01*
X152226692Y-100010047D01*
X152230070Y-99933032D01*
X152237142Y-99876023D01*
X152249088Y-99834526D01*
X152267090Y-99804043D01*
X152292327Y-99780080D01*
X152317247Y-99763355D01*
X152377171Y-99741097D01*
X152446911Y-99736076D01*
X152512600Y-99748752D01*
G37*
X152512600Y-99748752D02*
X152529948Y-99756334D01*
X152571356Y-99789128D01*
X152606765Y-99836547D01*
X152628664Y-99887151D01*
X152632229Y-99912098D01*
X152620279Y-99946927D01*
X152594067Y-99965357D01*
X152565964Y-99976516D01*
X152553095Y-99978572D01*
X152546829Y-99963649D01*
X152534456Y-99931175D01*
X152529028Y-99916502D01*
X152498590Y-99865744D01*
X152454520Y-99840427D01*
X152398010Y-99841206D01*
X152393825Y-99842203D01*
X152363655Y-99856507D01*
X152341476Y-99884393D01*
X152326327Y-99929287D01*
X152317250Y-99994615D01*
X152313286Y-100083804D01*
X152312914Y-100131261D01*
X152312730Y-100206071D01*
X152311522Y-100257069D01*
X152308309Y-100289471D01*
X152302109Y-100308495D01*
X152291940Y-100319356D01*
X152276819Y-100327272D01*
X152275946Y-100327670D01*
X152246828Y-100339981D01*
X152232403Y-100344514D01*
X152230186Y-100330809D01*
X152228289Y-100292925D01*
X152226847Y-100235715D01*
X152225998Y-100164027D01*
X152225829Y-100111565D01*
X152226692Y-100010047D01*
X152230070Y-99933032D01*
X152237142Y-99876023D01*
X152249088Y-99834526D01*
X152267090Y-99804043D01*
X152292327Y-99780080D01*
X152317247Y-99763355D01*
X152377171Y-99741097D01*
X152446911Y-99736076D01*
X152512600Y-99748752D01*
G36*
X153013595Y-99756966D02*
G01*
X153071021Y-99794497D01*
X153098719Y-99828096D01*
X153120662Y-99889064D01*
X153122405Y-99937308D01*
X153118457Y-100001816D01*
X152969686Y-100066934D01*
X152897349Y-100100202D01*
X152850084Y-100126964D01*
X152825507Y-100150144D01*
X152821237Y-100172667D01*
X152834889Y-100197455D01*
X152849943Y-100213886D01*
X152893746Y-100240235D01*
X152941389Y-100242081D01*
X152985145Y-100221546D01*
X153017289Y-100180752D01*
X153023038Y-100166347D01*
X153050576Y-100121356D01*
X153082258Y-100102182D01*
X153125714Y-100085779D01*
X153125714Y-100147966D01*
X153121872Y-100190283D01*
X153106823Y-100225969D01*
X153075280Y-100266943D01*
X153070592Y-100272267D01*
X153035506Y-100308720D01*
X153005347Y-100328283D01*
X152967615Y-100337283D01*
X152936335Y-100340230D01*
X152880385Y-100340965D01*
X152840555Y-100331660D01*
X152815708Y-100317846D01*
X152776656Y-100287467D01*
X152749625Y-100254613D01*
X152732517Y-100213294D01*
X152723238Y-100157521D01*
X152719693Y-100081305D01*
X152719410Y-100042622D01*
X152720372Y-99996247D01*
X152808007Y-99996247D01*
X152809023Y-100021126D01*
X152811556Y-100025200D01*
X152828274Y-100019665D01*
X152864249Y-100005017D01*
X152912331Y-99984190D01*
X152922386Y-99979714D01*
X152983152Y-99948814D01*
X153016632Y-99921657D01*
X153023990Y-99896220D01*
X153006391Y-99870481D01*
X152991856Y-99859109D01*
X152939410Y-99836364D01*
X152890322Y-99840122D01*
X152849227Y-99867884D01*
X152820758Y-99917152D01*
X152811631Y-99956257D01*
X152808007Y-99996247D01*
X152720372Y-99996247D01*
X152721285Y-99952249D01*
X152728196Y-99885384D01*
X152741884Y-99836695D01*
X152764096Y-99800849D01*
X152796574Y-99772513D01*
X152810733Y-99763355D01*
X152875053Y-99739507D01*
X152945473Y-99738006D01*
X153013595Y-99756966D01*
G37*
X153013595Y-99756966D02*
X153071021Y-99794497D01*
X153098719Y-99828096D01*
X153120662Y-99889064D01*
X153122405Y-99937308D01*
X153118457Y-100001816D01*
X152969686Y-100066934D01*
X152897349Y-100100202D01*
X152850084Y-100126964D01*
X152825507Y-100150144D01*
X152821237Y-100172667D01*
X152834889Y-100197455D01*
X152849943Y-100213886D01*
X152893746Y-100240235D01*
X152941389Y-100242081D01*
X152985145Y-100221546D01*
X153017289Y-100180752D01*
X153023038Y-100166347D01*
X153050576Y-100121356D01*
X153082258Y-100102182D01*
X153125714Y-100085779D01*
X153125714Y-100147966D01*
X153121872Y-100190283D01*
X153106823Y-100225969D01*
X153075280Y-100266943D01*
X153070592Y-100272267D01*
X153035506Y-100308720D01*
X153005347Y-100328283D01*
X152967615Y-100337283D01*
X152936335Y-100340230D01*
X152880385Y-100340965D01*
X152840555Y-100331660D01*
X152815708Y-100317846D01*
X152776656Y-100287467D01*
X152749625Y-100254613D01*
X152732517Y-100213294D01*
X152723238Y-100157521D01*
X152719693Y-100081305D01*
X152719410Y-100042622D01*
X152720372Y-99996247D01*
X152808007Y-99996247D01*
X152809023Y-100021126D01*
X152811556Y-100025200D01*
X152828274Y-100019665D01*
X152864249Y-100005017D01*
X152912331Y-99984190D01*
X152922386Y-99979714D01*
X152983152Y-99948814D01*
X153016632Y-99921657D01*
X153023990Y-99896220D01*
X153006391Y-99870481D01*
X152991856Y-99859109D01*
X152939410Y-99836364D01*
X152890322Y-99840122D01*
X152849227Y-99867884D01*
X152820758Y-99917152D01*
X152811631Y-99956257D01*
X152808007Y-99996247D01*
X152720372Y-99996247D01*
X152721285Y-99952249D01*
X152728196Y-99885384D01*
X152741884Y-99836695D01*
X152764096Y-99800849D01*
X152796574Y-99772513D01*
X152810733Y-99763355D01*
X152875053Y-99739507D01*
X152945473Y-99738006D01*
X153013595Y-99756966D01*
G36*
X149963910Y-95032348D02*
G01*
X150042454Y-95032778D01*
X150099298Y-95033942D01*
X150138105Y-95036207D01*
X150162538Y-95039940D01*
X150176262Y-95045506D01*
X150182940Y-95053273D01*
X150186236Y-95063605D01*
X150186556Y-95064943D01*
X150191562Y-95089079D01*
X150200829Y-95136701D01*
X150213392Y-95202741D01*
X150228287Y-95282128D01*
X150244551Y-95369796D01*
X150245119Y-95372875D01*
X150261410Y-95458789D01*
X150276652Y-95534696D01*
X150289861Y-95596045D01*
X150300054Y-95638282D01*
X150306248Y-95656855D01*
X150306543Y-95657184D01*
X150324788Y-95666253D01*
X150362405Y-95681367D01*
X150411271Y-95699262D01*
X150411543Y-95699358D01*
X150473093Y-95722493D01*
X150545657Y-95751965D01*
X150614057Y-95781597D01*
X150617294Y-95783062D01*
X150728702Y-95833626D01*
X150975399Y-95665160D01*
X151051077Y-95613803D01*
X151119631Y-95567889D01*
X151177088Y-95530030D01*
X151219476Y-95502837D01*
X151242825Y-95488921D01*
X151245042Y-95487889D01*
X151262010Y-95492484D01*
X151293701Y-95514655D01*
X151341352Y-95555447D01*
X151406198Y-95615905D01*
X151472397Y-95680227D01*
X151536214Y-95743612D01*
X151593329Y-95801451D01*
X151640305Y-95850175D01*
X151673703Y-95886210D01*
X151690085Y-95905984D01*
X151690694Y-95907002D01*
X151692505Y-95920572D01*
X151685683Y-95942733D01*
X151668540Y-95976478D01*
X151639393Y-96024800D01*
X151596555Y-96090692D01*
X151539448Y-96175517D01*
X151488766Y-96250177D01*
X151443461Y-96317140D01*
X151406150Y-96372516D01*
X151379452Y-96412420D01*
X151365985Y-96432962D01*
X151365137Y-96434356D01*
X151366781Y-96454038D01*
X151379245Y-96492293D01*
X151400048Y-96541889D01*
X151407462Y-96557728D01*
X151439814Y-96628290D01*
X151474328Y-96708353D01*
X151502365Y-96777629D01*
X151522568Y-96829045D01*
X151538615Y-96868119D01*
X151547888Y-96888541D01*
X151549041Y-96890114D01*
X151566096Y-96892721D01*
X151606298Y-96899863D01*
X151664302Y-96910523D01*
X151734763Y-96923685D01*
X151812335Y-96938333D01*
X151891672Y-96953449D01*
X151967431Y-96968018D01*
X152034264Y-96981022D01*
X152086828Y-96991445D01*
X152119776Y-96998270D01*
X152127857Y-97000199D01*
X152136205Y-97004962D01*
X152142506Y-97015718D01*
X152147045Y-97036098D01*
X152150104Y-97069734D01*
X152151967Y-97120255D01*
X152152918Y-97191292D01*
X152153240Y-97286476D01*
X152153257Y-97325492D01*
X152153257Y-97642799D01*
X152077057Y-97657839D01*
X152034663Y-97665995D01*
X151971400Y-97677899D01*
X151894962Y-97692116D01*
X151813043Y-97707210D01*
X151790400Y-97711355D01*
X151714806Y-97726053D01*
X151648953Y-97740505D01*
X151598366Y-97753375D01*
X151568574Y-97763322D01*
X151563612Y-97766287D01*
X151551426Y-97787283D01*
X151533953Y-97827967D01*
X151514577Y-97880322D01*
X151510734Y-97891600D01*
X151485339Y-97961523D01*
X151453817Y-98040418D01*
X151422969Y-98111266D01*
X151422817Y-98111595D01*
X151371447Y-98222733D01*
X151540399Y-98471253D01*
X151709352Y-98719772D01*
X151492429Y-98937058D01*
X151426819Y-99001726D01*
X151366979Y-99058733D01*
X151316267Y-99105033D01*
X151278046Y-99137584D01*
X151255675Y-99153343D01*
X151252466Y-99154343D01*
X151233626Y-99146469D01*
X151195180Y-99124578D01*
X151141330Y-99091267D01*
X151076276Y-99049131D01*
X151005940Y-99001943D01*
X150934555Y-98953810D01*
X150870908Y-98911928D01*
X150819041Y-98878871D01*
X150782995Y-98857218D01*
X150766867Y-98849543D01*
X150747189Y-98856037D01*
X150709875Y-98873150D01*
X150662621Y-98897326D01*
X150657612Y-98900013D01*
X150593977Y-98931927D01*
X150550341Y-98947579D01*
X150523202Y-98947745D01*
X150509057Y-98933204D01*
X150508975Y-98933000D01*
X150501905Y-98915779D01*
X150485042Y-98874899D01*
X150459695Y-98813525D01*
X150427171Y-98734819D01*
X150388778Y-98641947D01*
X150345822Y-98538072D01*
X150304222Y-98437502D01*
X150258504Y-98326516D01*
X150216526Y-98223703D01*
X150179548Y-98132215D01*
X150148827Y-98055201D01*
X150125622Y-97995815D01*
X150111190Y-97957209D01*
X150106743Y-97942800D01*
X150117896Y-97926272D01*
X150147069Y-97899930D01*
X150185971Y-97870887D01*
X150296757Y-97779039D01*
X150383351Y-97673759D01*
X150444716Y-97557266D01*
X150479815Y-97431776D01*
X150487608Y-97299507D01*
X150481943Y-97238457D01*
X150451078Y-97111795D01*
X150397920Y-96999941D01*
X150325767Y-96904001D01*
X150237917Y-96825076D01*
X150137665Y-96764270D01*
X150028310Y-96722687D01*
X149913147Y-96701428D01*
X149795475Y-96701599D01*
X149678590Y-96724301D01*
X149565789Y-96770638D01*
X149460369Y-96841713D01*
X149416368Y-96881911D01*
X149331979Y-96985129D01*
X149273222Y-97097925D01*
X149239704Y-97217010D01*
X149231035Y-97339095D01*
X149246823Y-97460893D01*
X149286678Y-97579116D01*
X149350207Y-97690475D01*
X149437021Y-97791684D01*
X149534029Y-97870887D01*
X149574437Y-97901162D01*
X149602982Y-97927219D01*
X149613257Y-97942825D01*
X149607877Y-97959843D01*
X149592575Y-98000500D01*
X149568612Y-98061642D01*
X149537244Y-98140119D01*
X149499732Y-98232780D01*
X149457333Y-98336472D01*
X149415663Y-98437526D01*
X149369690Y-98548607D01*
X149327107Y-98651541D01*
X149289221Y-98743165D01*
X149257340Y-98820316D01*
X149232771Y-98879831D01*
X149216820Y-98918544D01*
X149210910Y-98933000D01*
X149196948Y-98947685D01*
X149169940Y-98947642D01*
X149126413Y-98932099D01*
X149062890Y-98900284D01*
X149062388Y-98900013D01*
X149014560Y-98875323D01*
X148975897Y-98857338D01*
X148954095Y-98849614D01*
X148953133Y-98849543D01*
X148936721Y-98857378D01*
X148900487Y-98879165D01*
X148848474Y-98912328D01*
X148784725Y-98954291D01*
X148714060Y-99001943D01*
X148642116Y-99050191D01*
X148577274Y-99092151D01*
X148523735Y-99125227D01*
X148485697Y-99146821D01*
X148467533Y-99154343D01*
X148450808Y-99144457D01*
X148417180Y-99116826D01*
X148370010Y-99074495D01*
X148312658Y-99020505D01*
X148248484Y-98957899D01*
X148227497Y-98936983D01*
X148010499Y-98719623D01*
X148175668Y-98477220D01*
X148225864Y-98402781D01*
X148269919Y-98335972D01*
X148305362Y-98280665D01*
X148329719Y-98240729D01*
X148340522Y-98220036D01*
X148340838Y-98218563D01*
X148335143Y-98199058D01*
X148319826Y-98159822D01*
X148297537Y-98107430D01*
X148281893Y-98072355D01*
X148252641Y-98005201D01*
X148225094Y-97937358D01*
X148203737Y-97880034D01*
X148197935Y-97862572D01*
X148181452Y-97815938D01*
X148165340Y-97779905D01*
X148156490Y-97766287D01*
X148136960Y-97757952D01*
X148094334Y-97746137D01*
X148034145Y-97732181D01*
X147961922Y-97717422D01*
X147929600Y-97711355D01*
X147847522Y-97696273D01*
X147768795Y-97681669D01*
X147701109Y-97668980D01*
X147652160Y-97659642D01*
X147642943Y-97657839D01*
X147566743Y-97642799D01*
X147566743Y-97325492D01*
X147566914Y-97221154D01*
X147567616Y-97142213D01*
X147569134Y-97085038D01*
X147571749Y-97045999D01*
X147575746Y-97021465D01*
X147581409Y-97007805D01*
X147589020Y-97001389D01*
X147592143Y-97000199D01*
X147610978Y-96995980D01*
X147652588Y-96987562D01*
X147711630Y-96975961D01*
X147782757Y-96962195D01*
X147860625Y-96947280D01*
X147939887Y-96932232D01*
X148015198Y-96918069D01*
X148081213Y-96905806D01*
X148132587Y-96896461D01*
X148163975Y-96891050D01*
X148170959Y-96890114D01*
X148177285Y-96877596D01*
X148191290Y-96844246D01*
X148210355Y-96796377D01*
X148217634Y-96777629D01*
X148246996Y-96705195D01*
X148281571Y-96625170D01*
X148312537Y-96557728D01*
X148335323Y-96506159D01*
X148350482Y-96463785D01*
X148355542Y-96437834D01*
X148354736Y-96434356D01*
X148344041Y-96417936D01*
X148319620Y-96381417D01*
X148284095Y-96328687D01*
X148240087Y-96263635D01*
X148190217Y-96190151D01*
X148180356Y-96175645D01*
X148122492Y-96089704D01*
X148079956Y-96024261D01*
X148051054Y-95976304D01*
X148034090Y-95942820D01*
X148027367Y-95920795D01*
X148029190Y-95907217D01*
X148029236Y-95907131D01*
X148043586Y-95889297D01*
X148075323Y-95854817D01*
X148121010Y-95807268D01*
X148177204Y-95750222D01*
X148240468Y-95687255D01*
X148247602Y-95680227D01*
X148327330Y-95603020D01*
X148388857Y-95546330D01*
X148433421Y-95509110D01*
X148462257Y-95490315D01*
X148474958Y-95487889D01*
X148493494Y-95498471D01*
X148531961Y-95522916D01*
X148586386Y-95558612D01*
X148652798Y-95602947D01*
X148727225Y-95653311D01*
X148744601Y-95665160D01*
X148991297Y-95833626D01*
X149102706Y-95783062D01*
X149170457Y-95753595D01*
X149243183Y-95723959D01*
X149305703Y-95700330D01*
X149308457Y-95699358D01*
X149357360Y-95681457D01*
X149395057Y-95666320D01*
X149413425Y-95657210D01*
X149413456Y-95657184D01*
X149419285Y-95640717D01*
X149429192Y-95600219D01*
X149442195Y-95540242D01*
X149457309Y-95465340D01*
X149473552Y-95380064D01*
X149474881Y-95372875D01*
X149491175Y-95285014D01*
X149506133Y-95205260D01*
X149518791Y-95138681D01*
X149528186Y-95090347D01*
X149533354Y-95065325D01*
X149533444Y-95064943D01*
X149536589Y-95054299D01*
X149542704Y-95046262D01*
X149555453Y-95040467D01*
X149578500Y-95036547D01*
X149615509Y-95034135D01*
X149670144Y-95032865D01*
X149746067Y-95032371D01*
X149846944Y-95032286D01*
X149860000Y-95032286D01*
X149963910Y-95032348D01*
G37*
X149963910Y-95032348D02*
X150042454Y-95032778D01*
X150099298Y-95033942D01*
X150138105Y-95036207D01*
X150162538Y-95039940D01*
X150176262Y-95045506D01*
X150182940Y-95053273D01*
X150186236Y-95063605D01*
X150186556Y-95064943D01*
X150191562Y-95089079D01*
X150200829Y-95136701D01*
X150213392Y-95202741D01*
X150228287Y-95282128D01*
X150244551Y-95369796D01*
X150245119Y-95372875D01*
X150261410Y-95458789D01*
X150276652Y-95534696D01*
X150289861Y-95596045D01*
X150300054Y-95638282D01*
X150306248Y-95656855D01*
X150306543Y-95657184D01*
X150324788Y-95666253D01*
X150362405Y-95681367D01*
X150411271Y-95699262D01*
X150411543Y-95699358D01*
X150473093Y-95722493D01*
X150545657Y-95751965D01*
X150614057Y-95781597D01*
X150617294Y-95783062D01*
X150728702Y-95833626D01*
X150975399Y-95665160D01*
X151051077Y-95613803D01*
X151119631Y-95567889D01*
X151177088Y-95530030D01*
X151219476Y-95502837D01*
X151242825Y-95488921D01*
X151245042Y-95487889D01*
X151262010Y-95492484D01*
X151293701Y-95514655D01*
X151341352Y-95555447D01*
X151406198Y-95615905D01*
X151472397Y-95680227D01*
X151536214Y-95743612D01*
X151593329Y-95801451D01*
X151640305Y-95850175D01*
X151673703Y-95886210D01*
X151690085Y-95905984D01*
X151690694Y-95907002D01*
X151692505Y-95920572D01*
X151685683Y-95942733D01*
X151668540Y-95976478D01*
X151639393Y-96024800D01*
X151596555Y-96090692D01*
X151539448Y-96175517D01*
X151488766Y-96250177D01*
X151443461Y-96317140D01*
X151406150Y-96372516D01*
X151379452Y-96412420D01*
X151365985Y-96432962D01*
X151365137Y-96434356D01*
X151366781Y-96454038D01*
X151379245Y-96492293D01*
X151400048Y-96541889D01*
X151407462Y-96557728D01*
X151439814Y-96628290D01*
X151474328Y-96708353D01*
X151502365Y-96777629D01*
X151522568Y-96829045D01*
X151538615Y-96868119D01*
X151547888Y-96888541D01*
X151549041Y-96890114D01*
X151566096Y-96892721D01*
X151606298Y-96899863D01*
X151664302Y-96910523D01*
X151734763Y-96923685D01*
X151812335Y-96938333D01*
X151891672Y-96953449D01*
X151967431Y-96968018D01*
X152034264Y-96981022D01*
X152086828Y-96991445D01*
X152119776Y-96998270D01*
X152127857Y-97000199D01*
X152136205Y-97004962D01*
X152142506Y-97015718D01*
X152147045Y-97036098D01*
X152150104Y-97069734D01*
X152151967Y-97120255D01*
X152152918Y-97191292D01*
X152153240Y-97286476D01*
X152153257Y-97325492D01*
X152153257Y-97642799D01*
X152077057Y-97657839D01*
X152034663Y-97665995D01*
X151971400Y-97677899D01*
X151894962Y-97692116D01*
X151813043Y-97707210D01*
X151790400Y-97711355D01*
X151714806Y-97726053D01*
X151648953Y-97740505D01*
X151598366Y-97753375D01*
X151568574Y-97763322D01*
X151563612Y-97766287D01*
X151551426Y-97787283D01*
X151533953Y-97827967D01*
X151514577Y-97880322D01*
X151510734Y-97891600D01*
X151485339Y-97961523D01*
X151453817Y-98040418D01*
X151422969Y-98111266D01*
X151422817Y-98111595D01*
X151371447Y-98222733D01*
X151540399Y-98471253D01*
X151709352Y-98719772D01*
X151492429Y-98937058D01*
X151426819Y-99001726D01*
X151366979Y-99058733D01*
X151316267Y-99105033D01*
X151278046Y-99137584D01*
X151255675Y-99153343D01*
X151252466Y-99154343D01*
X151233626Y-99146469D01*
X151195180Y-99124578D01*
X151141330Y-99091267D01*
X151076276Y-99049131D01*
X151005940Y-99001943D01*
X150934555Y-98953810D01*
X150870908Y-98911928D01*
X150819041Y-98878871D01*
X150782995Y-98857218D01*
X150766867Y-98849543D01*
X150747189Y-98856037D01*
X150709875Y-98873150D01*
X150662621Y-98897326D01*
X150657612Y-98900013D01*
X150593977Y-98931927D01*
X150550341Y-98947579D01*
X150523202Y-98947745D01*
X150509057Y-98933204D01*
X150508975Y-98933000D01*
X150501905Y-98915779D01*
X150485042Y-98874899D01*
X150459695Y-98813525D01*
X150427171Y-98734819D01*
X150388778Y-98641947D01*
X150345822Y-98538072D01*
X150304222Y-98437502D01*
X150258504Y-98326516D01*
X150216526Y-98223703D01*
X150179548Y-98132215D01*
X150148827Y-98055201D01*
X150125622Y-97995815D01*
X150111190Y-97957209D01*
X150106743Y-97942800D01*
X150117896Y-97926272D01*
X150147069Y-97899930D01*
X150185971Y-97870887D01*
X150296757Y-97779039D01*
X150383351Y-97673759D01*
X150444716Y-97557266D01*
X150479815Y-97431776D01*
X150487608Y-97299507D01*
X150481943Y-97238457D01*
X150451078Y-97111795D01*
X150397920Y-96999941D01*
X150325767Y-96904001D01*
X150237917Y-96825076D01*
X150137665Y-96764270D01*
X150028310Y-96722687D01*
X149913147Y-96701428D01*
X149795475Y-96701599D01*
X149678590Y-96724301D01*
X149565789Y-96770638D01*
X149460369Y-96841713D01*
X149416368Y-96881911D01*
X149331979Y-96985129D01*
X149273222Y-97097925D01*
X149239704Y-97217010D01*
X149231035Y-97339095D01*
X149246823Y-97460893D01*
X149286678Y-97579116D01*
X149350207Y-97690475D01*
X149437021Y-97791684D01*
X149534029Y-97870887D01*
X149574437Y-97901162D01*
X149602982Y-97927219D01*
X149613257Y-97942825D01*
X149607877Y-97959843D01*
X149592575Y-98000500D01*
X149568612Y-98061642D01*
X149537244Y-98140119D01*
X149499732Y-98232780D01*
X149457333Y-98336472D01*
X149415663Y-98437526D01*
X149369690Y-98548607D01*
X149327107Y-98651541D01*
X149289221Y-98743165D01*
X149257340Y-98820316D01*
X149232771Y-98879831D01*
X149216820Y-98918544D01*
X149210910Y-98933000D01*
X149196948Y-98947685D01*
X149169940Y-98947642D01*
X149126413Y-98932099D01*
X149062890Y-98900284D01*
X149062388Y-98900013D01*
X149014560Y-98875323D01*
X148975897Y-98857338D01*
X148954095Y-98849614D01*
X148953133Y-98849543D01*
X148936721Y-98857378D01*
X148900487Y-98879165D01*
X148848474Y-98912328D01*
X148784725Y-98954291D01*
X148714060Y-99001943D01*
X148642116Y-99050191D01*
X148577274Y-99092151D01*
X148523735Y-99125227D01*
X148485697Y-99146821D01*
X148467533Y-99154343D01*
X148450808Y-99144457D01*
X148417180Y-99116826D01*
X148370010Y-99074495D01*
X148312658Y-99020505D01*
X148248484Y-98957899D01*
X148227497Y-98936983D01*
X148010499Y-98719623D01*
X148175668Y-98477220D01*
X148225864Y-98402781D01*
X148269919Y-98335972D01*
X148305362Y-98280665D01*
X148329719Y-98240729D01*
X148340522Y-98220036D01*
X148340838Y-98218563D01*
X148335143Y-98199058D01*
X148319826Y-98159822D01*
X148297537Y-98107430D01*
X148281893Y-98072355D01*
X148252641Y-98005201D01*
X148225094Y-97937358D01*
X148203737Y-97880034D01*
X148197935Y-97862572D01*
X148181452Y-97815938D01*
X148165340Y-97779905D01*
X148156490Y-97766287D01*
X148136960Y-97757952D01*
X148094334Y-97746137D01*
X148034145Y-97732181D01*
X147961922Y-97717422D01*
X147929600Y-97711355D01*
X147847522Y-97696273D01*
X147768795Y-97681669D01*
X147701109Y-97668980D01*
X147652160Y-97659642D01*
X147642943Y-97657839D01*
X147566743Y-97642799D01*
X147566743Y-97325492D01*
X147566914Y-97221154D01*
X147567616Y-97142213D01*
X147569134Y-97085038D01*
X147571749Y-97045999D01*
X147575746Y-97021465D01*
X147581409Y-97007805D01*
X147589020Y-97001389D01*
X147592143Y-97000199D01*
X147610978Y-96995980D01*
X147652588Y-96987562D01*
X147711630Y-96975961D01*
X147782757Y-96962195D01*
X147860625Y-96947280D01*
X147939887Y-96932232D01*
X148015198Y-96918069D01*
X148081213Y-96905806D01*
X148132587Y-96896461D01*
X148163975Y-96891050D01*
X148170959Y-96890114D01*
X148177285Y-96877596D01*
X148191290Y-96844246D01*
X148210355Y-96796377D01*
X148217634Y-96777629D01*
X148246996Y-96705195D01*
X148281571Y-96625170D01*
X148312537Y-96557728D01*
X148335323Y-96506159D01*
X148350482Y-96463785D01*
X148355542Y-96437834D01*
X148354736Y-96434356D01*
X148344041Y-96417936D01*
X148319620Y-96381417D01*
X148284095Y-96328687D01*
X148240087Y-96263635D01*
X148190217Y-96190151D01*
X148180356Y-96175645D01*
X148122492Y-96089704D01*
X148079956Y-96024261D01*
X148051054Y-95976304D01*
X148034090Y-95942820D01*
X148027367Y-95920795D01*
X148029190Y-95907217D01*
X148029236Y-95907131D01*
X148043586Y-95889297D01*
X148075323Y-95854817D01*
X148121010Y-95807268D01*
X148177204Y-95750222D01*
X148240468Y-95687255D01*
X148247602Y-95680227D01*
X148327330Y-95603020D01*
X148388857Y-95546330D01*
X148433421Y-95509110D01*
X148462257Y-95490315D01*
X148474958Y-95487889D01*
X148493494Y-95498471D01*
X148531961Y-95522916D01*
X148586386Y-95558612D01*
X148652798Y-95602947D01*
X148727225Y-95653311D01*
X148744601Y-95665160D01*
X148991297Y-95833626D01*
X149102706Y-95783062D01*
X149170457Y-95753595D01*
X149243183Y-95723959D01*
X149305703Y-95700330D01*
X149308457Y-95699358D01*
X149357360Y-95681457D01*
X149395057Y-95666320D01*
X149413425Y-95657210D01*
X149413456Y-95657184D01*
X149419285Y-95640717D01*
X149429192Y-95600219D01*
X149442195Y-95540242D01*
X149457309Y-95465340D01*
X149473552Y-95380064D01*
X149474881Y-95372875D01*
X149491175Y-95285014D01*
X149506133Y-95205260D01*
X149518791Y-95138681D01*
X149528186Y-95090347D01*
X149533354Y-95065325D01*
X149533444Y-95064943D01*
X149536589Y-95054299D01*
X149542704Y-95046262D01*
X149555453Y-95040467D01*
X149578500Y-95036547D01*
X149615509Y-95034135D01*
X149670144Y-95032865D01*
X149746067Y-95032371D01*
X149846944Y-95032286D01*
X149860000Y-95032286D01*
X149963910Y-95032348D01*
D11*
%TO.C,BT1*%
X133380000Y-92345000D02*
X133380000Y-94345000D01*
X119970000Y-88235000D02*
X123030000Y-88235000D01*
X119970000Y-98455000D02*
X119970000Y-88235000D01*
X123030000Y-98455000D02*
X119970000Y-98455000D01*
X133190000Y-98455000D02*
X127130000Y-98455000D01*
X133190000Y-95645000D02*
X133190000Y-98455000D01*
X133190000Y-88235000D02*
X133190000Y-91045000D01*
X127130000Y-88235000D02*
X133190000Y-88235000D01*
%TO.C,BZ1*%
X159900000Y-88940000D02*
G75*
G03*
X159900000Y-88940000I-6230000J0D01*
G01*
X155169999Y-95340000D02*
G75*
G02*
X152170000Y-95340000I-1499999J6400000D01*
G01*
%TO.C,C1*%
X132512500Y-104867500D02*
X132512500Y-104242500D01*
X132825000Y-104555000D02*
X132200000Y-104555000D01*
X131960000Y-101174437D02*
X130895563Y-100110000D01*
X131960000Y-104565563D02*
X130895563Y-105630000D01*
X131960000Y-104565563D02*
X131960000Y-103930000D01*
X131960000Y-101174437D02*
X131960000Y-101810000D01*
X130895563Y-100110000D02*
X126440000Y-100110000D01*
X130895563Y-105630000D02*
X126440000Y-105630000D01*
X126440000Y-105630000D02*
X126440000Y-103930000D01*
X126440000Y-100110000D02*
X126440000Y-101810000D01*
%TO.C,C3*%
X161800000Y-93064420D02*
X161800000Y-93345580D01*
X160780000Y-93064420D02*
X160780000Y-93345580D01*
%TO.C,C4*%
X145816250Y-114598750D02*
X145816250Y-115386250D01*
X145422500Y-114992500D02*
X146210000Y-114992500D01*
X146450000Y-119185563D02*
X147514437Y-120250000D01*
X146450000Y-114494437D02*
X147514437Y-113430000D01*
X146450000Y-114494437D02*
X146450000Y-115780000D01*
X146450000Y-119185563D02*
X146450000Y-117900000D01*
X147514437Y-120250000D02*
X153270000Y-120250000D01*
X147514437Y-113430000D02*
X153270000Y-113430000D01*
X153270000Y-113430000D02*
X153270000Y-115780000D01*
X153270000Y-120250000D02*
X153270000Y-117900000D01*
%TO.C,C5*%
X172210000Y-86714420D02*
X172210000Y-86995580D01*
X173230000Y-86714420D02*
X173230000Y-86995580D01*
%TO.C,C51*%
X159477500Y-105567500D02*
X158852500Y-105567500D01*
X159165000Y-105255000D02*
X159165000Y-105880000D01*
X155784437Y-106120000D02*
X154720000Y-107184437D01*
X159175563Y-106120000D02*
X160240000Y-107184437D01*
X159175563Y-106120000D02*
X158540000Y-106120000D01*
X155784437Y-106120000D02*
X156420000Y-106120000D01*
X154720000Y-107184437D02*
X154720000Y-111640000D01*
X160240000Y-107184437D02*
X160240000Y-111640000D01*
X160240000Y-111640000D02*
X158540000Y-111640000D01*
X154720000Y-111640000D02*
X156420000Y-111640000D01*
%TO.C,C52*%
X170740000Y-104360000D02*
X170740000Y-102660000D01*
X170740000Y-98840000D02*
X170740000Y-100540000D01*
X166284437Y-98840000D02*
X170740000Y-98840000D01*
X166284437Y-104360000D02*
X170740000Y-104360000D01*
X165220000Y-103295563D02*
X165220000Y-102660000D01*
X165220000Y-99904437D02*
X165220000Y-100540000D01*
X165220000Y-99904437D02*
X166284437Y-98840000D01*
X165220000Y-103295563D02*
X166284437Y-104360000D01*
X164355000Y-99915000D02*
X164980000Y-99915000D01*
X164667500Y-99602500D02*
X164667500Y-100227500D01*
%TO.C,D1*%
X125400000Y-85090000D02*
X126350000Y-85090000D01*
X131140000Y-85090000D02*
X130190000Y-85090000D01*
X126350000Y-86010000D02*
X130190000Y-86010000D01*
X126350000Y-84170000D02*
X126350000Y-86010000D01*
X130190000Y-84170000D02*
X126350000Y-84170000D01*
X130190000Y-86010000D02*
X130190000Y-84170000D01*
%TO.C,LED*%
X140970000Y-91415000D02*
X140970000Y-90145000D01*
X142240000Y-91415000D02*
X140970000Y-91415000D01*
X145160000Y-89102071D02*
X145160000Y-88705000D01*
X144400000Y-89102071D02*
X144400000Y-88705000D01*
X145160000Y-80045000D02*
X145160000Y-86045000D01*
X144400000Y-80045000D02*
X145160000Y-80045000D01*
X144400000Y-86045000D02*
X144400000Y-80045000D01*
X143510000Y-88705000D02*
X143510000Y-86045000D01*
X142620000Y-89035000D02*
X142620000Y-88705000D01*
X141860000Y-89035000D02*
X141860000Y-88705000D01*
X142520000Y-86045000D02*
X142520000Y-80045000D01*
X142400000Y-86045000D02*
X142400000Y-80045000D01*
X142280000Y-86045000D02*
X142280000Y-80045000D01*
X142160000Y-86045000D02*
X142160000Y-80045000D01*
X142040000Y-86045000D02*
X142040000Y-80045000D01*
X141920000Y-86045000D02*
X141920000Y-80045000D01*
X142620000Y-80045000D02*
X142620000Y-86045000D01*
X141860000Y-80045000D02*
X142620000Y-80045000D01*
X141860000Y-86045000D02*
X141860000Y-80045000D01*
X140910000Y-86045000D02*
X140910000Y-88705000D01*
X146110000Y-86045000D02*
X140910000Y-86045000D01*
X146110000Y-88705000D02*
X146110000Y-86045000D01*
X140910000Y-88705000D02*
X146110000Y-88705000D01*
%TO.C,D11*%
X130810000Y-108890000D02*
X130810000Y-109840000D01*
X130810000Y-114630000D02*
X130810000Y-113680000D01*
X129890000Y-109840000D02*
X129890000Y-113680000D01*
X131730000Y-109840000D02*
X129890000Y-109840000D01*
X131730000Y-113680000D02*
X131730000Y-109840000D01*
X129890000Y-113680000D02*
X131730000Y-113680000D01*
%TO.C,D12*%
X133350000Y-108890000D02*
X133350000Y-109840000D01*
X133350000Y-114630000D02*
X133350000Y-113680000D01*
X132430000Y-109840000D02*
X132430000Y-113680000D01*
X134270000Y-109840000D02*
X132430000Y-109840000D01*
X134270000Y-113680000D02*
X134270000Y-109840000D01*
X132430000Y-113680000D02*
X134270000Y-113680000D01*
%TO.C,D13*%
X141620000Y-116490000D02*
X141620000Y-114650000D01*
X141620000Y-114650000D02*
X137780000Y-114650000D01*
X137780000Y-114650000D02*
X137780000Y-116490000D01*
X137780000Y-116490000D02*
X141620000Y-116490000D01*
X142570000Y-115570000D02*
X141620000Y-115570000D01*
X136830000Y-115570000D02*
X137780000Y-115570000D01*
%TO.C,D51*%
X169260000Y-112410000D02*
X171100000Y-112410000D01*
X171100000Y-112410000D02*
X171100000Y-108570000D01*
X171100000Y-108570000D02*
X169260000Y-108570000D01*
X169260000Y-108570000D02*
X169260000Y-112410000D01*
X170180000Y-113360000D02*
X170180000Y-112410000D01*
X170180000Y-107620000D02*
X170180000Y-108570000D01*
%TO.C,Probes*%
X124390000Y-107620000D02*
X124390000Y-110120000D01*
X126890000Y-107620000D02*
X124390000Y-107620000D01*
X126190000Y-114640000D02*
X124690000Y-114640000D01*
X126190000Y-115640000D02*
X126190000Y-114640000D01*
X126190000Y-108920000D02*
X124690000Y-108920000D01*
X126190000Y-107920000D02*
X126190000Y-108920000D01*
X127000000Y-115140000D02*
X127000000Y-115640000D01*
X128210000Y-115140000D02*
X127000000Y-115140000D01*
X128210000Y-108420000D02*
X128210000Y-115140000D01*
X127000000Y-108420000D02*
X128210000Y-108420000D01*
X127000000Y-107920000D02*
X127000000Y-108420000D01*
X128710000Y-115640000D02*
X128710000Y-107920000D01*
X124690000Y-115640000D02*
X128710000Y-115640000D01*
X124690000Y-107920000D02*
X124690000Y-115640000D01*
X128710000Y-107920000D02*
X124690000Y-107920000D01*
%TO.C,Q1*%
X142350000Y-99000000D02*
X140700000Y-99000000D01*
X142350000Y-104200000D02*
X142350000Y-99000000D01*
X137050000Y-104200000D02*
X142350000Y-104200000D01*
X137050000Y-99000000D02*
X137050000Y-104200000D01*
X138700000Y-99000000D02*
X137050000Y-99000000D01*
X137290000Y-99030000D02*
X137290000Y-104130000D01*
X137200000Y-99000000D02*
X137200000Y-104200000D01*
X137100000Y-104200000D02*
X137100000Y-99000000D01*
X137400000Y-99000000D02*
X137400000Y-104200000D01*
X137500000Y-104200000D02*
X137500000Y-99000000D01*
X140700000Y-99000000D02*
G75*
G02*
X138700000Y-99000000I-1000000J0D01*
G01*
%TO.C,Q2*%
X144890000Y-97650000D02*
X139700000Y-97650000D01*
X144890000Y-92850000D02*
X144890000Y-97650000D01*
X139700000Y-92850000D02*
X144890000Y-92850000D01*
X139700000Y-97650000D02*
X139700000Y-92850000D01*
X136910000Y-93980000D02*
X139700000Y-93980000D01*
X136910000Y-95250000D02*
X139700000Y-95250000D01*
X136910000Y-96520000D02*
X139700000Y-96520000D01*
%TO.C,R3*%
X173455000Y-90300436D02*
X173455000Y-90754564D01*
X171985000Y-90300436D02*
X171985000Y-90754564D01*
%TO.C,R11*%
X149325000Y-110620436D02*
X149325000Y-111074564D01*
X147855000Y-110620436D02*
X147855000Y-111074564D01*
%TO.C,R12*%
X145315000Y-110620436D02*
X145315000Y-111074564D01*
X146785000Y-110620436D02*
X146785000Y-111074564D01*
%TO.C,R13*%
X149325000Y-107264564D02*
X149325000Y-106810436D01*
X147855000Y-107264564D02*
X147855000Y-106810436D01*
%TO.C,R15*%
X135155000Y-111532936D02*
X135155000Y-111987064D01*
X136625000Y-111532936D02*
X136625000Y-111987064D01*
%TO.C,R16*%
X146785000Y-106810436D02*
X146785000Y-107264564D01*
X145315000Y-106810436D02*
X145315000Y-107264564D01*
%TO.C,R20*%
X150395000Y-106810436D02*
X150395000Y-107264564D01*
X151865000Y-106810436D02*
X151865000Y-107264564D01*
%TO.C,R25*%
X151865000Y-110620436D02*
X151865000Y-111074564D01*
X150395000Y-110620436D02*
X150395000Y-111074564D01*
%TO.C,R51*%
X159285000Y-103454564D02*
X159285000Y-103000436D01*
X160755000Y-103454564D02*
X160755000Y-103000436D01*
%TO.C,R52*%
X163295000Y-103454564D02*
X163295000Y-103000436D01*
X161825000Y-103454564D02*
X161825000Y-103000436D01*
%TO.C,R54*%
X173455000Y-105637064D02*
X173455000Y-105182936D01*
X171985000Y-105637064D02*
X171985000Y-105182936D01*
%TO.C,SW1*%
X139760000Y-90170000D02*
X139760000Y-91280000D01*
X139760000Y-91280000D02*
X138430000Y-91280000D01*
X139760000Y-80080000D02*
X134560000Y-80080000D01*
X134560000Y-80080000D02*
X134560000Y-88710000D01*
X139760000Y-88710000D02*
X134560000Y-88710000D01*
X139760000Y-80080000D02*
X139760000Y-88710000D01*
X137160000Y-80080000D02*
X137160000Y-88710000D01*
X135530000Y-88710000D02*
X135530000Y-89120000D01*
X136250000Y-88710000D02*
X136250000Y-89120000D01*
X138070000Y-88710000D02*
X138070000Y-89060000D01*
X138790000Y-88710000D02*
X138790000Y-89060000D01*
X137278100Y-80080000D02*
X137278100Y-88710000D01*
X137396195Y-80080000D02*
X137396195Y-88710000D01*
X137514290Y-80080000D02*
X137514290Y-88710000D01*
X137632385Y-80080000D02*
X137632385Y-88710000D01*
X137750480Y-80080000D02*
X137750480Y-88710000D01*
X137868575Y-80080000D02*
X137868575Y-88710000D01*
X137986670Y-80080000D02*
X137986670Y-88710000D01*
X138104765Y-80080000D02*
X138104765Y-88710000D01*
X138222860Y-80080000D02*
X138222860Y-88710000D01*
X138340955Y-80080000D02*
X138340955Y-88710000D01*
X138459050Y-80080000D02*
X138459050Y-88710000D01*
X138577145Y-80080000D02*
X138577145Y-88710000D01*
X138695240Y-80080000D02*
X138695240Y-88710000D01*
X138813335Y-80080000D02*
X138813335Y-88710000D01*
X138931430Y-80080000D02*
X138931430Y-88710000D01*
X139049525Y-80080000D02*
X139049525Y-88710000D01*
X139167620Y-80080000D02*
X139167620Y-88710000D01*
X139285715Y-80080000D02*
X139285715Y-88710000D01*
X139403810Y-80080000D02*
X139403810Y-88710000D01*
X139521905Y-80080000D02*
X139521905Y-88710000D01*
X139640000Y-80080000D02*
X139640000Y-88710000D01*
%TO.C,LM393*%
X140970000Y-107930000D02*
X137520000Y-107930000D01*
X140970000Y-107930000D02*
X142920000Y-107930000D01*
X140970000Y-113050000D02*
X139020000Y-113050000D01*
X140970000Y-113050000D02*
X142920000Y-113050000D01*
%TO.C,4093*%
X165100000Y-106055000D02*
X161650000Y-106055000D01*
X165100000Y-106055000D02*
X167050000Y-106055000D01*
X165100000Y-114925000D02*
X163150000Y-114925000D01*
X165100000Y-114925000D02*
X167050000Y-114925000D01*
%TO.C,4046*%
X167005000Y-85745000D02*
X163555000Y-85745000D01*
X167005000Y-85745000D02*
X168955000Y-85745000D01*
X167005000Y-95865000D02*
X165055000Y-95865000D01*
X167005000Y-95865000D02*
X168955000Y-95865000D01*
%TO.C,BT1*%
D12*
X128754285Y-90098571D02*
X128897142Y-90146190D01*
X128944761Y-90193809D01*
X128992380Y-90289047D01*
X128992380Y-90431904D01*
X128944761Y-90527142D01*
X128897142Y-90574761D01*
X128801904Y-90622380D01*
X128420952Y-90622380D01*
X128420952Y-89622380D01*
X128754285Y-89622380D01*
X128849523Y-89670000D01*
X128897142Y-89717619D01*
X128944761Y-89812857D01*
X128944761Y-89908095D01*
X128897142Y-90003333D01*
X128849523Y-90050952D01*
X128754285Y-90098571D01*
X128420952Y-90098571D01*
X129278095Y-89622380D02*
X129849523Y-89622380D01*
X129563809Y-90622380D02*
X129563809Y-89622380D01*
X130706666Y-90622380D02*
X130135238Y-90622380D01*
X130420952Y-90622380D02*
X130420952Y-89622380D01*
X130325714Y-89765238D01*
X130230476Y-89860476D01*
X130135238Y-89908095D01*
%TO.C,BZ1*%
X152789047Y-88868571D02*
X152931904Y-88916190D01*
X152979523Y-88963809D01*
X153027142Y-89059047D01*
X153027142Y-89201904D01*
X152979523Y-89297142D01*
X152931904Y-89344761D01*
X152836666Y-89392380D01*
X152455714Y-89392380D01*
X152455714Y-88392380D01*
X152789047Y-88392380D01*
X152884285Y-88440000D01*
X152931904Y-88487619D01*
X152979523Y-88582857D01*
X152979523Y-88678095D01*
X152931904Y-88773333D01*
X152884285Y-88820952D01*
X152789047Y-88868571D01*
X152455714Y-88868571D01*
X153360476Y-88392380D02*
X154027142Y-88392380D01*
X153360476Y-89392380D01*
X154027142Y-89392380D01*
X154931904Y-89392380D02*
X154360476Y-89392380D01*
X154646190Y-89392380D02*
X154646190Y-88392380D01*
X154550952Y-88535238D01*
X154455714Y-88630476D01*
X154360476Y-88678095D01*
%TO.C,C1*%
X124293333Y-103227142D02*
X124245714Y-103274761D01*
X124102857Y-103322380D01*
X124007619Y-103322380D01*
X123864761Y-103274761D01*
X123769523Y-103179523D01*
X123721904Y-103084285D01*
X123674285Y-102893809D01*
X123674285Y-102750952D01*
X123721904Y-102560476D01*
X123769523Y-102465238D01*
X123864761Y-102370000D01*
X124007619Y-102322380D01*
X124102857Y-102322380D01*
X124245714Y-102370000D01*
X124293333Y-102417619D01*
X125245714Y-103322380D02*
X124674285Y-103322380D01*
X124960000Y-103322380D02*
X124960000Y-102322380D01*
X124864761Y-102465238D01*
X124769523Y-102560476D01*
X124674285Y-102608095D01*
%TO.C,C3*%
X161123333Y-95607142D02*
X161075714Y-95654761D01*
X160932857Y-95702380D01*
X160837619Y-95702380D01*
X160694761Y-95654761D01*
X160599523Y-95559523D01*
X160551904Y-95464285D01*
X160504285Y-95273809D01*
X160504285Y-95130952D01*
X160551904Y-94940476D01*
X160599523Y-94845238D01*
X160694761Y-94750000D01*
X160837619Y-94702380D01*
X160932857Y-94702380D01*
X161075714Y-94750000D01*
X161123333Y-94797619D01*
X161456666Y-94702380D02*
X162075714Y-94702380D01*
X161742380Y-95083333D01*
X161885238Y-95083333D01*
X161980476Y-95130952D01*
X162028095Y-95178571D01*
X162075714Y-95273809D01*
X162075714Y-95511904D01*
X162028095Y-95607142D01*
X161980476Y-95654761D01*
X161885238Y-95702380D01*
X161599523Y-95702380D01*
X161504285Y-95654761D01*
X161456666Y-95607142D01*
%TO.C,C4*%
X144613333Y-118467142D02*
X144565714Y-118514761D01*
X144422857Y-118562380D01*
X144327619Y-118562380D01*
X144184761Y-118514761D01*
X144089523Y-118419523D01*
X144041904Y-118324285D01*
X143994285Y-118133809D01*
X143994285Y-117990952D01*
X144041904Y-117800476D01*
X144089523Y-117705238D01*
X144184761Y-117610000D01*
X144327619Y-117562380D01*
X144422857Y-117562380D01*
X144565714Y-117610000D01*
X144613333Y-117657619D01*
X145470476Y-117895714D02*
X145470476Y-118562380D01*
X145232380Y-117514761D02*
X144994285Y-118229047D01*
X145613333Y-118229047D01*
%TO.C,C5*%
X175093333Y-89257142D02*
X175045714Y-89304761D01*
X174902857Y-89352380D01*
X174807619Y-89352380D01*
X174664761Y-89304761D01*
X174569523Y-89209523D01*
X174521904Y-89114285D01*
X174474285Y-88923809D01*
X174474285Y-88780952D01*
X174521904Y-88590476D01*
X174569523Y-88495238D01*
X174664761Y-88400000D01*
X174807619Y-88352380D01*
X174902857Y-88352380D01*
X175045714Y-88400000D01*
X175093333Y-88447619D01*
X175998095Y-88352380D02*
X175521904Y-88352380D01*
X175474285Y-88828571D01*
X175521904Y-88780952D01*
X175617142Y-88733333D01*
X175855238Y-88733333D01*
X175950476Y-88780952D01*
X175998095Y-88828571D01*
X176045714Y-88923809D01*
X176045714Y-89161904D01*
X175998095Y-89257142D01*
X175950476Y-89304761D01*
X175855238Y-89352380D01*
X175617142Y-89352380D01*
X175521904Y-89304761D01*
X175474285Y-89257142D01*
%TO.C,C51*%
X154297142Y-105767142D02*
X154249523Y-105814761D01*
X154106666Y-105862380D01*
X154011428Y-105862380D01*
X153868571Y-105814761D01*
X153773333Y-105719523D01*
X153725714Y-105624285D01*
X153678095Y-105433809D01*
X153678095Y-105290952D01*
X153725714Y-105100476D01*
X153773333Y-105005238D01*
X153868571Y-104910000D01*
X154011428Y-104862380D01*
X154106666Y-104862380D01*
X154249523Y-104910000D01*
X154297142Y-104957619D01*
X155201904Y-104862380D02*
X154725714Y-104862380D01*
X154678095Y-105338571D01*
X154725714Y-105290952D01*
X154820952Y-105243333D01*
X155059047Y-105243333D01*
X155154285Y-105290952D01*
X155201904Y-105338571D01*
X155249523Y-105433809D01*
X155249523Y-105671904D01*
X155201904Y-105767142D01*
X155154285Y-105814761D01*
X155059047Y-105862380D01*
X154820952Y-105862380D01*
X154725714Y-105814761D01*
X154678095Y-105767142D01*
X156201904Y-105862380D02*
X155630476Y-105862380D01*
X155916190Y-105862380D02*
X155916190Y-104862380D01*
X155820952Y-105005238D01*
X155725714Y-105100476D01*
X155630476Y-105148095D01*
%TO.C,C52*%
X167337142Y-98257142D02*
X167289523Y-98304761D01*
X167146666Y-98352380D01*
X167051428Y-98352380D01*
X166908571Y-98304761D01*
X166813333Y-98209523D01*
X166765714Y-98114285D01*
X166718095Y-97923809D01*
X166718095Y-97780952D01*
X166765714Y-97590476D01*
X166813333Y-97495238D01*
X166908571Y-97400000D01*
X167051428Y-97352380D01*
X167146666Y-97352380D01*
X167289523Y-97400000D01*
X167337142Y-97447619D01*
X168241904Y-97352380D02*
X167765714Y-97352380D01*
X167718095Y-97828571D01*
X167765714Y-97780952D01*
X167860952Y-97733333D01*
X168099047Y-97733333D01*
X168194285Y-97780952D01*
X168241904Y-97828571D01*
X168289523Y-97923809D01*
X168289523Y-98161904D01*
X168241904Y-98257142D01*
X168194285Y-98304761D01*
X168099047Y-98352380D01*
X167860952Y-98352380D01*
X167765714Y-98304761D01*
X167718095Y-98257142D01*
X168670476Y-97447619D02*
X168718095Y-97400000D01*
X168813333Y-97352380D01*
X169051428Y-97352380D01*
X169146666Y-97400000D01*
X169194285Y-97447619D01*
X169241904Y-97542857D01*
X169241904Y-97638095D01*
X169194285Y-97780952D01*
X168622857Y-98352380D01*
X169241904Y-98352380D01*
%TO.C,D1*%
X127531904Y-87462380D02*
X127531904Y-86462380D01*
X127770000Y-86462380D01*
X127912857Y-86510000D01*
X128008095Y-86605238D01*
X128055714Y-86700476D01*
X128103333Y-86890952D01*
X128103333Y-87033809D01*
X128055714Y-87224285D01*
X128008095Y-87319523D01*
X127912857Y-87414761D01*
X127770000Y-87462380D01*
X127531904Y-87462380D01*
X129055714Y-87462380D02*
X128484285Y-87462380D01*
X128770000Y-87462380D02*
X128770000Y-86462380D01*
X128674761Y-86605238D01*
X128579523Y-86700476D01*
X128484285Y-86748095D01*
%TO.C,LED*%
X146677142Y-85542380D02*
X146200952Y-85542380D01*
X146200952Y-84542380D01*
X147010476Y-85018571D02*
X147343809Y-85018571D01*
X147486666Y-85542380D02*
X147010476Y-85542380D01*
X147010476Y-84542380D01*
X147486666Y-84542380D01*
X147915238Y-85542380D02*
X147915238Y-84542380D01*
X148153333Y-84542380D01*
X148296190Y-84590000D01*
X148391428Y-84685238D01*
X148439047Y-84780476D01*
X148486666Y-84970952D01*
X148486666Y-85113809D01*
X148439047Y-85304285D01*
X148391428Y-85399523D01*
X148296190Y-85494761D01*
X148153333Y-85542380D01*
X147915238Y-85542380D01*
%TO.C,D11*%
X128325714Y-118562380D02*
X128325714Y-117562380D01*
X128563809Y-117562380D01*
X128706666Y-117610000D01*
X128801904Y-117705238D01*
X128849523Y-117800476D01*
X128897142Y-117990952D01*
X128897142Y-118133809D01*
X128849523Y-118324285D01*
X128801904Y-118419523D01*
X128706666Y-118514761D01*
X128563809Y-118562380D01*
X128325714Y-118562380D01*
X129849523Y-118562380D02*
X129278095Y-118562380D01*
X129563809Y-118562380D02*
X129563809Y-117562380D01*
X129468571Y-117705238D01*
X129373333Y-117800476D01*
X129278095Y-117848095D01*
X130801904Y-118562380D02*
X130230476Y-118562380D01*
X130516190Y-118562380D02*
X130516190Y-117562380D01*
X130420952Y-117705238D01*
X130325714Y-117800476D01*
X130230476Y-117848095D01*
%TO.C,D12*%
X132135714Y-118562380D02*
X132135714Y-117562380D01*
X132373809Y-117562380D01*
X132516666Y-117610000D01*
X132611904Y-117705238D01*
X132659523Y-117800476D01*
X132707142Y-117990952D01*
X132707142Y-118133809D01*
X132659523Y-118324285D01*
X132611904Y-118419523D01*
X132516666Y-118514761D01*
X132373809Y-118562380D01*
X132135714Y-118562380D01*
X133659523Y-118562380D02*
X133088095Y-118562380D01*
X133373809Y-118562380D02*
X133373809Y-117562380D01*
X133278571Y-117705238D01*
X133183333Y-117800476D01*
X133088095Y-117848095D01*
X134040476Y-117657619D02*
X134088095Y-117610000D01*
X134183333Y-117562380D01*
X134421428Y-117562380D01*
X134516666Y-117610000D01*
X134564285Y-117657619D01*
X134611904Y-117752857D01*
X134611904Y-117848095D01*
X134564285Y-117990952D01*
X133992857Y-118562380D01*
X134611904Y-118562380D01*
%TO.C,D13*%
X138485714Y-118562380D02*
X138485714Y-117562380D01*
X138723809Y-117562380D01*
X138866666Y-117610000D01*
X138961904Y-117705238D01*
X139009523Y-117800476D01*
X139057142Y-117990952D01*
X139057142Y-118133809D01*
X139009523Y-118324285D01*
X138961904Y-118419523D01*
X138866666Y-118514761D01*
X138723809Y-118562380D01*
X138485714Y-118562380D01*
X140009523Y-118562380D02*
X139438095Y-118562380D01*
X139723809Y-118562380D02*
X139723809Y-117562380D01*
X139628571Y-117705238D01*
X139533333Y-117800476D01*
X139438095Y-117848095D01*
X140342857Y-117562380D02*
X140961904Y-117562380D01*
X140628571Y-117943333D01*
X140771428Y-117943333D01*
X140866666Y-117990952D01*
X140914285Y-118038571D01*
X140961904Y-118133809D01*
X140961904Y-118371904D01*
X140914285Y-118467142D01*
X140866666Y-118514761D01*
X140771428Y-118562380D01*
X140485714Y-118562380D01*
X140390476Y-118514761D01*
X140342857Y-118467142D01*
%TO.C,D51*%
X174045714Y-110942380D02*
X174045714Y-109942380D01*
X174283809Y-109942380D01*
X174426666Y-109990000D01*
X174521904Y-110085238D01*
X174569523Y-110180476D01*
X174617142Y-110370952D01*
X174617142Y-110513809D01*
X174569523Y-110704285D01*
X174521904Y-110799523D01*
X174426666Y-110894761D01*
X174283809Y-110942380D01*
X174045714Y-110942380D01*
X175521904Y-109942380D02*
X175045714Y-109942380D01*
X174998095Y-110418571D01*
X175045714Y-110370952D01*
X175140952Y-110323333D01*
X175379047Y-110323333D01*
X175474285Y-110370952D01*
X175521904Y-110418571D01*
X175569523Y-110513809D01*
X175569523Y-110751904D01*
X175521904Y-110847142D01*
X175474285Y-110894761D01*
X175379047Y-110942380D01*
X175140952Y-110942380D01*
X175045714Y-110894761D01*
X174998095Y-110847142D01*
X176521904Y-110942380D02*
X175950476Y-110942380D01*
X176236190Y-110942380D02*
X176236190Y-109942380D01*
X176140952Y-110085238D01*
X176045714Y-110180476D01*
X175950476Y-110228095D01*
%TO.C,Probes*%
X123420476Y-107132380D02*
X123420476Y-106132380D01*
X123801428Y-106132380D01*
X123896666Y-106180000D01*
X123944285Y-106227619D01*
X123991904Y-106322857D01*
X123991904Y-106465714D01*
X123944285Y-106560952D01*
X123896666Y-106608571D01*
X123801428Y-106656190D01*
X123420476Y-106656190D01*
X124420476Y-107132380D02*
X124420476Y-106465714D01*
X124420476Y-106656190D02*
X124468095Y-106560952D01*
X124515714Y-106513333D01*
X124610952Y-106465714D01*
X124706190Y-106465714D01*
X125182380Y-107132380D02*
X125087142Y-107084761D01*
X125039523Y-107037142D01*
X124991904Y-106941904D01*
X124991904Y-106656190D01*
X125039523Y-106560952D01*
X125087142Y-106513333D01*
X125182380Y-106465714D01*
X125325238Y-106465714D01*
X125420476Y-106513333D01*
X125468095Y-106560952D01*
X125515714Y-106656190D01*
X125515714Y-106941904D01*
X125468095Y-107037142D01*
X125420476Y-107084761D01*
X125325238Y-107132380D01*
X125182380Y-107132380D01*
X125944285Y-107132380D02*
X125944285Y-106132380D01*
X125944285Y-106513333D02*
X126039523Y-106465714D01*
X126230000Y-106465714D01*
X126325238Y-106513333D01*
X126372857Y-106560952D01*
X126420476Y-106656190D01*
X126420476Y-106941904D01*
X126372857Y-107037142D01*
X126325238Y-107084761D01*
X126230000Y-107132380D01*
X126039523Y-107132380D01*
X125944285Y-107084761D01*
X127230000Y-107084761D02*
X127134761Y-107132380D01*
X126944285Y-107132380D01*
X126849047Y-107084761D01*
X126801428Y-106989523D01*
X126801428Y-106608571D01*
X126849047Y-106513333D01*
X126944285Y-106465714D01*
X127134761Y-106465714D01*
X127230000Y-106513333D01*
X127277619Y-106608571D01*
X127277619Y-106703809D01*
X126801428Y-106799047D01*
X127658571Y-107084761D02*
X127753809Y-107132380D01*
X127944285Y-107132380D01*
X128039523Y-107084761D01*
X128087142Y-106989523D01*
X128087142Y-106941904D01*
X128039523Y-106846666D01*
X127944285Y-106799047D01*
X127801428Y-106799047D01*
X127706190Y-106751428D01*
X127658571Y-106656190D01*
X127658571Y-106608571D01*
X127706190Y-106513333D01*
X127801428Y-106465714D01*
X127944285Y-106465714D01*
X128039523Y-106513333D01*
%TO.C,Q1*%
X135794761Y-105957619D02*
X135699523Y-105910000D01*
X135604285Y-105814761D01*
X135461428Y-105671904D01*
X135366190Y-105624285D01*
X135270952Y-105624285D01*
X135318571Y-105862380D02*
X135223333Y-105814761D01*
X135128095Y-105719523D01*
X135080476Y-105529047D01*
X135080476Y-105195714D01*
X135128095Y-105005238D01*
X135223333Y-104910000D01*
X135318571Y-104862380D01*
X135509047Y-104862380D01*
X135604285Y-104910000D01*
X135699523Y-105005238D01*
X135747142Y-105195714D01*
X135747142Y-105529047D01*
X135699523Y-105719523D01*
X135604285Y-105814761D01*
X135509047Y-105862380D01*
X135318571Y-105862380D01*
X136699523Y-105862380D02*
X136128095Y-105862380D01*
X136413809Y-105862380D02*
X136413809Y-104862380D01*
X136318571Y-105005238D01*
X136223333Y-105100476D01*
X136128095Y-105148095D01*
%TO.C,Q2*%
X145954761Y-93257619D02*
X145859523Y-93210000D01*
X145764285Y-93114761D01*
X145621428Y-92971904D01*
X145526190Y-92924285D01*
X145430952Y-92924285D01*
X145478571Y-93162380D02*
X145383333Y-93114761D01*
X145288095Y-93019523D01*
X145240476Y-92829047D01*
X145240476Y-92495714D01*
X145288095Y-92305238D01*
X145383333Y-92210000D01*
X145478571Y-92162380D01*
X145669047Y-92162380D01*
X145764285Y-92210000D01*
X145859523Y-92305238D01*
X145907142Y-92495714D01*
X145907142Y-92829047D01*
X145859523Y-93019523D01*
X145764285Y-93114761D01*
X145669047Y-93162380D01*
X145478571Y-93162380D01*
X146288095Y-92257619D02*
X146335714Y-92210000D01*
X146430952Y-92162380D01*
X146669047Y-92162380D01*
X146764285Y-92210000D01*
X146811904Y-92257619D01*
X146859523Y-92352857D01*
X146859523Y-92448095D01*
X146811904Y-92590952D01*
X146240476Y-93162380D01*
X146859523Y-93162380D01*
%TO.C,R3*%
X175093333Y-91892380D02*
X174760000Y-91416190D01*
X174521904Y-91892380D02*
X174521904Y-90892380D01*
X174902857Y-90892380D01*
X174998095Y-90940000D01*
X175045714Y-90987619D01*
X175093333Y-91082857D01*
X175093333Y-91225714D01*
X175045714Y-91320952D01*
X174998095Y-91368571D01*
X174902857Y-91416190D01*
X174521904Y-91416190D01*
X175426666Y-90892380D02*
X176045714Y-90892380D01*
X175712380Y-91273333D01*
X175855238Y-91273333D01*
X175950476Y-91320952D01*
X175998095Y-91368571D01*
X176045714Y-91463809D01*
X176045714Y-91701904D01*
X175998095Y-91797142D01*
X175950476Y-91844761D01*
X175855238Y-91892380D01*
X175569523Y-91892380D01*
X175474285Y-91844761D01*
X175426666Y-91797142D01*
%TO.C,R11*%
X150312380Y-112402857D02*
X149836190Y-112736190D01*
X150312380Y-112974285D02*
X149312380Y-112974285D01*
X149312380Y-112593333D01*
X149360000Y-112498095D01*
X149407619Y-112450476D01*
X149502857Y-112402857D01*
X149645714Y-112402857D01*
X149740952Y-112450476D01*
X149788571Y-112498095D01*
X149836190Y-112593333D01*
X149836190Y-112974285D01*
X150312380Y-111450476D02*
X150312380Y-112021904D01*
X150312380Y-111736190D02*
X149312380Y-111736190D01*
X149455238Y-111831428D01*
X149550476Y-111926666D01*
X149598095Y-112021904D01*
X150312380Y-110498095D02*
X150312380Y-111069523D01*
X150312380Y-110783809D02*
X149312380Y-110783809D01*
X149455238Y-110879047D01*
X149550476Y-110974285D01*
X149598095Y-111069523D01*
%TO.C,R12*%
X147772380Y-112402857D02*
X147296190Y-112736190D01*
X147772380Y-112974285D02*
X146772380Y-112974285D01*
X146772380Y-112593333D01*
X146820000Y-112498095D01*
X146867619Y-112450476D01*
X146962857Y-112402857D01*
X147105714Y-112402857D01*
X147200952Y-112450476D01*
X147248571Y-112498095D01*
X147296190Y-112593333D01*
X147296190Y-112974285D01*
X147772380Y-111450476D02*
X147772380Y-112021904D01*
X147772380Y-111736190D02*
X146772380Y-111736190D01*
X146915238Y-111831428D01*
X147010476Y-111926666D01*
X147058095Y-112021904D01*
X146867619Y-111069523D02*
X146820000Y-111021904D01*
X146772380Y-110926666D01*
X146772380Y-110688571D01*
X146820000Y-110593333D01*
X146867619Y-110545714D01*
X146962857Y-110498095D01*
X147058095Y-110498095D01*
X147200952Y-110545714D01*
X147772380Y-111117142D01*
X147772380Y-110498095D01*
%TO.C,R13*%
X149042380Y-104782857D02*
X148566190Y-105116190D01*
X149042380Y-105354285D02*
X148042380Y-105354285D01*
X148042380Y-104973333D01*
X148090000Y-104878095D01*
X148137619Y-104830476D01*
X148232857Y-104782857D01*
X148375714Y-104782857D01*
X148470952Y-104830476D01*
X148518571Y-104878095D01*
X148566190Y-104973333D01*
X148566190Y-105354285D01*
X149042380Y-103830476D02*
X149042380Y-104401904D01*
X149042380Y-104116190D02*
X148042380Y-104116190D01*
X148185238Y-104211428D01*
X148280476Y-104306666D01*
X148328095Y-104401904D01*
X148042380Y-103497142D02*
X148042380Y-102878095D01*
X148423333Y-103211428D01*
X148423333Y-103068571D01*
X148470952Y-102973333D01*
X148518571Y-102925714D01*
X148613809Y-102878095D01*
X148851904Y-102878095D01*
X148947142Y-102925714D01*
X148994761Y-102973333D01*
X149042380Y-103068571D01*
X149042380Y-103354285D01*
X148994761Y-103449523D01*
X148947142Y-103497142D01*
%TO.C,R15*%
X135247142Y-109672380D02*
X134913809Y-109196190D01*
X134675714Y-109672380D02*
X134675714Y-108672380D01*
X135056666Y-108672380D01*
X135151904Y-108720000D01*
X135199523Y-108767619D01*
X135247142Y-108862857D01*
X135247142Y-109005714D01*
X135199523Y-109100952D01*
X135151904Y-109148571D01*
X135056666Y-109196190D01*
X134675714Y-109196190D01*
X136199523Y-109672380D02*
X135628095Y-109672380D01*
X135913809Y-109672380D02*
X135913809Y-108672380D01*
X135818571Y-108815238D01*
X135723333Y-108910476D01*
X135628095Y-108958095D01*
X137104285Y-108672380D02*
X136628095Y-108672380D01*
X136580476Y-109148571D01*
X136628095Y-109100952D01*
X136723333Y-109053333D01*
X136961428Y-109053333D01*
X137056666Y-109100952D01*
X137104285Y-109148571D01*
X137151904Y-109243809D01*
X137151904Y-109481904D01*
X137104285Y-109577142D01*
X137056666Y-109624761D01*
X136961428Y-109672380D01*
X136723333Y-109672380D01*
X136628095Y-109624761D01*
X136580476Y-109577142D01*
%TO.C,R16*%
X146502380Y-104782857D02*
X146026190Y-105116190D01*
X146502380Y-105354285D02*
X145502380Y-105354285D01*
X145502380Y-104973333D01*
X145550000Y-104878095D01*
X145597619Y-104830476D01*
X145692857Y-104782857D01*
X145835714Y-104782857D01*
X145930952Y-104830476D01*
X145978571Y-104878095D01*
X146026190Y-104973333D01*
X146026190Y-105354285D01*
X146502380Y-103830476D02*
X146502380Y-104401904D01*
X146502380Y-104116190D02*
X145502380Y-104116190D01*
X145645238Y-104211428D01*
X145740476Y-104306666D01*
X145788095Y-104401904D01*
X145502380Y-102973333D02*
X145502380Y-103163809D01*
X145550000Y-103259047D01*
X145597619Y-103306666D01*
X145740476Y-103401904D01*
X145930952Y-103449523D01*
X146311904Y-103449523D01*
X146407142Y-103401904D01*
X146454761Y-103354285D01*
X146502380Y-103259047D01*
X146502380Y-103068571D01*
X146454761Y-102973333D01*
X146407142Y-102925714D01*
X146311904Y-102878095D01*
X146073809Y-102878095D01*
X145978571Y-102925714D01*
X145930952Y-102973333D01*
X145883333Y-103068571D01*
X145883333Y-103259047D01*
X145930952Y-103354285D01*
X145978571Y-103401904D01*
X146073809Y-103449523D01*
%TO.C,R20*%
X151582380Y-104782857D02*
X151106190Y-105116190D01*
X151582380Y-105354285D02*
X150582380Y-105354285D01*
X150582380Y-104973333D01*
X150630000Y-104878095D01*
X150677619Y-104830476D01*
X150772857Y-104782857D01*
X150915714Y-104782857D01*
X151010952Y-104830476D01*
X151058571Y-104878095D01*
X151106190Y-104973333D01*
X151106190Y-105354285D01*
X150677619Y-104401904D02*
X150630000Y-104354285D01*
X150582380Y-104259047D01*
X150582380Y-104020952D01*
X150630000Y-103925714D01*
X150677619Y-103878095D01*
X150772857Y-103830476D01*
X150868095Y-103830476D01*
X151010952Y-103878095D01*
X151582380Y-104449523D01*
X151582380Y-103830476D01*
X150582380Y-103211428D02*
X150582380Y-103116190D01*
X150630000Y-103020952D01*
X150677619Y-102973333D01*
X150772857Y-102925714D01*
X150963333Y-102878095D01*
X151201428Y-102878095D01*
X151391904Y-102925714D01*
X151487142Y-102973333D01*
X151534761Y-103020952D01*
X151582380Y-103116190D01*
X151582380Y-103211428D01*
X151534761Y-103306666D01*
X151487142Y-103354285D01*
X151391904Y-103401904D01*
X151201428Y-103449523D01*
X150963333Y-103449523D01*
X150772857Y-103401904D01*
X150677619Y-103354285D01*
X150630000Y-103306666D01*
X150582380Y-103211428D01*
%TO.C,R25*%
X152852380Y-112402857D02*
X152376190Y-112736190D01*
X152852380Y-112974285D02*
X151852380Y-112974285D01*
X151852380Y-112593333D01*
X151900000Y-112498095D01*
X151947619Y-112450476D01*
X152042857Y-112402857D01*
X152185714Y-112402857D01*
X152280952Y-112450476D01*
X152328571Y-112498095D01*
X152376190Y-112593333D01*
X152376190Y-112974285D01*
X151947619Y-112021904D02*
X151900000Y-111974285D01*
X151852380Y-111879047D01*
X151852380Y-111640952D01*
X151900000Y-111545714D01*
X151947619Y-111498095D01*
X152042857Y-111450476D01*
X152138095Y-111450476D01*
X152280952Y-111498095D01*
X152852380Y-112069523D01*
X152852380Y-111450476D01*
X151852380Y-110545714D02*
X151852380Y-111021904D01*
X152328571Y-111069523D01*
X152280952Y-111021904D01*
X152233333Y-110926666D01*
X152233333Y-110688571D01*
X152280952Y-110593333D01*
X152328571Y-110545714D01*
X152423809Y-110498095D01*
X152661904Y-110498095D01*
X152757142Y-110545714D01*
X152804761Y-110593333D01*
X152852380Y-110688571D01*
X152852380Y-110926666D01*
X152804761Y-111021904D01*
X152757142Y-111069523D01*
%TO.C,R51*%
X159202380Y-100972857D02*
X158726190Y-101306190D01*
X159202380Y-101544285D02*
X158202380Y-101544285D01*
X158202380Y-101163333D01*
X158250000Y-101068095D01*
X158297619Y-101020476D01*
X158392857Y-100972857D01*
X158535714Y-100972857D01*
X158630952Y-101020476D01*
X158678571Y-101068095D01*
X158726190Y-101163333D01*
X158726190Y-101544285D01*
X158202380Y-100068095D02*
X158202380Y-100544285D01*
X158678571Y-100591904D01*
X158630952Y-100544285D01*
X158583333Y-100449047D01*
X158583333Y-100210952D01*
X158630952Y-100115714D01*
X158678571Y-100068095D01*
X158773809Y-100020476D01*
X159011904Y-100020476D01*
X159107142Y-100068095D01*
X159154761Y-100115714D01*
X159202380Y-100210952D01*
X159202380Y-100449047D01*
X159154761Y-100544285D01*
X159107142Y-100591904D01*
X159202380Y-99068095D02*
X159202380Y-99639523D01*
X159202380Y-99353809D02*
X158202380Y-99353809D01*
X158345238Y-99449047D01*
X158440476Y-99544285D01*
X158488095Y-99639523D01*
%TO.C,R52*%
X161742380Y-100972857D02*
X161266190Y-101306190D01*
X161742380Y-101544285D02*
X160742380Y-101544285D01*
X160742380Y-101163333D01*
X160790000Y-101068095D01*
X160837619Y-101020476D01*
X160932857Y-100972857D01*
X161075714Y-100972857D01*
X161170952Y-101020476D01*
X161218571Y-101068095D01*
X161266190Y-101163333D01*
X161266190Y-101544285D01*
X160742380Y-100068095D02*
X160742380Y-100544285D01*
X161218571Y-100591904D01*
X161170952Y-100544285D01*
X161123333Y-100449047D01*
X161123333Y-100210952D01*
X161170952Y-100115714D01*
X161218571Y-100068095D01*
X161313809Y-100020476D01*
X161551904Y-100020476D01*
X161647142Y-100068095D01*
X161694761Y-100115714D01*
X161742380Y-100210952D01*
X161742380Y-100449047D01*
X161694761Y-100544285D01*
X161647142Y-100591904D01*
X160837619Y-99639523D02*
X160790000Y-99591904D01*
X160742380Y-99496666D01*
X160742380Y-99258571D01*
X160790000Y-99163333D01*
X160837619Y-99115714D01*
X160932857Y-99068095D01*
X161028095Y-99068095D01*
X161170952Y-99115714D01*
X161742380Y-99687142D01*
X161742380Y-99068095D01*
%TO.C,R54*%
X174617142Y-103322380D02*
X174283809Y-102846190D01*
X174045714Y-103322380D02*
X174045714Y-102322380D01*
X174426666Y-102322380D01*
X174521904Y-102370000D01*
X174569523Y-102417619D01*
X174617142Y-102512857D01*
X174617142Y-102655714D01*
X174569523Y-102750952D01*
X174521904Y-102798571D01*
X174426666Y-102846190D01*
X174045714Y-102846190D01*
X175521904Y-102322380D02*
X175045714Y-102322380D01*
X174998095Y-102798571D01*
X175045714Y-102750952D01*
X175140952Y-102703333D01*
X175379047Y-102703333D01*
X175474285Y-102750952D01*
X175521904Y-102798571D01*
X175569523Y-102893809D01*
X175569523Y-103131904D01*
X175521904Y-103227142D01*
X175474285Y-103274761D01*
X175379047Y-103322380D01*
X175140952Y-103322380D01*
X175045714Y-103274761D01*
X174998095Y-103227142D01*
X176426666Y-102655714D02*
X176426666Y-103322380D01*
X176188571Y-102274761D02*
X175950476Y-102989047D01*
X176569523Y-102989047D01*
%TO.C,SW1*%
X133286666Y-85494761D02*
X133429523Y-85542380D01*
X133667619Y-85542380D01*
X133762857Y-85494761D01*
X133810476Y-85447142D01*
X133858095Y-85351904D01*
X133858095Y-85256666D01*
X133810476Y-85161428D01*
X133762857Y-85113809D01*
X133667619Y-85066190D01*
X133477142Y-85018571D01*
X133381904Y-84970952D01*
X133334285Y-84923333D01*
X133286666Y-84828095D01*
X133286666Y-84732857D01*
X133334285Y-84637619D01*
X133381904Y-84590000D01*
X133477142Y-84542380D01*
X133715238Y-84542380D01*
X133858095Y-84590000D01*
X134191428Y-84542380D02*
X134429523Y-85542380D01*
X134620000Y-84828095D01*
X134810476Y-85542380D01*
X135048571Y-84542380D01*
X135953333Y-85542380D02*
X135381904Y-85542380D01*
X135667619Y-85542380D02*
X135667619Y-84542380D01*
X135572380Y-84685238D01*
X135477142Y-84780476D01*
X135381904Y-84828095D01*
%TO.C,LM393*%
X139279523Y-107542380D02*
X138803333Y-107542380D01*
X138803333Y-106542380D01*
X139612857Y-107542380D02*
X139612857Y-106542380D01*
X139946190Y-107256666D01*
X140279523Y-106542380D01*
X140279523Y-107542380D01*
X140660476Y-106542380D02*
X141279523Y-106542380D01*
X140946190Y-106923333D01*
X141089047Y-106923333D01*
X141184285Y-106970952D01*
X141231904Y-107018571D01*
X141279523Y-107113809D01*
X141279523Y-107351904D01*
X141231904Y-107447142D01*
X141184285Y-107494761D01*
X141089047Y-107542380D01*
X140803333Y-107542380D01*
X140708095Y-107494761D01*
X140660476Y-107447142D01*
X141755714Y-107542380D02*
X141946190Y-107542380D01*
X142041428Y-107494761D01*
X142089047Y-107447142D01*
X142184285Y-107304285D01*
X142231904Y-107113809D01*
X142231904Y-106732857D01*
X142184285Y-106637619D01*
X142136666Y-106590000D01*
X142041428Y-106542380D01*
X141850952Y-106542380D01*
X141755714Y-106590000D01*
X141708095Y-106637619D01*
X141660476Y-106732857D01*
X141660476Y-106970952D01*
X141708095Y-107066190D01*
X141755714Y-107113809D01*
X141850952Y-107161428D01*
X142041428Y-107161428D01*
X142136666Y-107113809D01*
X142184285Y-107066190D01*
X142231904Y-106970952D01*
X142565238Y-106542380D02*
X143184285Y-106542380D01*
X142850952Y-106923333D01*
X142993809Y-106923333D01*
X143089047Y-106970952D01*
X143136666Y-107018571D01*
X143184285Y-107113809D01*
X143184285Y-107351904D01*
X143136666Y-107447142D01*
X143089047Y-107494761D01*
X142993809Y-107542380D01*
X142708095Y-107542380D01*
X142612857Y-107494761D01*
X142565238Y-107447142D01*
%TO.C,4093*%
X163861904Y-116625714D02*
X163861904Y-117292380D01*
X163623809Y-116244761D02*
X163385714Y-116959047D01*
X164004761Y-116959047D01*
X164576190Y-116292380D02*
X164671428Y-116292380D01*
X164766666Y-116340000D01*
X164814285Y-116387619D01*
X164861904Y-116482857D01*
X164909523Y-116673333D01*
X164909523Y-116911428D01*
X164861904Y-117101904D01*
X164814285Y-117197142D01*
X164766666Y-117244761D01*
X164671428Y-117292380D01*
X164576190Y-117292380D01*
X164480952Y-117244761D01*
X164433333Y-117197142D01*
X164385714Y-117101904D01*
X164338095Y-116911428D01*
X164338095Y-116673333D01*
X164385714Y-116482857D01*
X164433333Y-116387619D01*
X164480952Y-116340000D01*
X164576190Y-116292380D01*
X165385714Y-117292380D02*
X165576190Y-117292380D01*
X165671428Y-117244761D01*
X165719047Y-117197142D01*
X165814285Y-117054285D01*
X165861904Y-116863809D01*
X165861904Y-116482857D01*
X165814285Y-116387619D01*
X165766666Y-116340000D01*
X165671428Y-116292380D01*
X165480952Y-116292380D01*
X165385714Y-116340000D01*
X165338095Y-116387619D01*
X165290476Y-116482857D01*
X165290476Y-116720952D01*
X165338095Y-116816190D01*
X165385714Y-116863809D01*
X165480952Y-116911428D01*
X165671428Y-116911428D01*
X165766666Y-116863809D01*
X165814285Y-116816190D01*
X165861904Y-116720952D01*
X166195238Y-116292380D02*
X166814285Y-116292380D01*
X166480952Y-116673333D01*
X166623809Y-116673333D01*
X166719047Y-116720952D01*
X166766666Y-116768571D01*
X166814285Y-116863809D01*
X166814285Y-117101904D01*
X166766666Y-117197142D01*
X166719047Y-117244761D01*
X166623809Y-117292380D01*
X166338095Y-117292380D01*
X166242857Y-117244761D01*
X166195238Y-117197142D01*
%TO.C,4046*%
X168941904Y-84690714D02*
X168941904Y-85357380D01*
X168703809Y-84309761D02*
X168465714Y-85024047D01*
X169084761Y-85024047D01*
X169656190Y-84357380D02*
X169751428Y-84357380D01*
X169846666Y-84405000D01*
X169894285Y-84452619D01*
X169941904Y-84547857D01*
X169989523Y-84738333D01*
X169989523Y-84976428D01*
X169941904Y-85166904D01*
X169894285Y-85262142D01*
X169846666Y-85309761D01*
X169751428Y-85357380D01*
X169656190Y-85357380D01*
X169560952Y-85309761D01*
X169513333Y-85262142D01*
X169465714Y-85166904D01*
X169418095Y-84976428D01*
X169418095Y-84738333D01*
X169465714Y-84547857D01*
X169513333Y-84452619D01*
X169560952Y-84405000D01*
X169656190Y-84357380D01*
X170846666Y-84690714D02*
X170846666Y-85357380D01*
X170608571Y-84309761D02*
X170370476Y-85024047D01*
X170989523Y-85024047D01*
X171799047Y-84357380D02*
X171608571Y-84357380D01*
X171513333Y-84405000D01*
X171465714Y-84452619D01*
X171370476Y-84595476D01*
X171322857Y-84785952D01*
X171322857Y-85166904D01*
X171370476Y-85262142D01*
X171418095Y-85309761D01*
X171513333Y-85357380D01*
X171703809Y-85357380D01*
X171799047Y-85309761D01*
X171846666Y-85262142D01*
X171894285Y-85166904D01*
X171894285Y-84928809D01*
X171846666Y-84833571D01*
X171799047Y-84785952D01*
X171703809Y-84738333D01*
X171513333Y-84738333D01*
X171418095Y-84785952D01*
X171370476Y-84833571D01*
X171322857Y-84928809D01*
%TD*%
M02*
